NaN,-1466.4,12388,57773,1.0289e+05,1.5309e+05,1.9975e+05,2.3593e+05,2.8457e+05,3.3861e+05,3.8631e+05,4.2616e+05,4.7354e+05,5.2289e+05,5.6944e+05,6.1808e+05,6.6531e+05,7.1264e+05,7.5701e+05,8.0158e+05,8.4734e+05,8.9219e+05,9.3601e+05,9.7884e+05,1.0167e+06,1.0552e+06,1.1347e+06,1.1663e+06,1.1998e+06,1.2357e+06,1.2721e+06,1.307e+06,1.3445e+06,1.3792e+06,1.4188e+06,1.4595e+06,1.4719e+06,1.5202e+06,1.5489e+06,1.5946e+06,1.6306e+06,1.6702e+06,1.7033e+06,1.7099e+06,1.7344e+06,1.7493e+06,1.785e+06,1.8233e+06,1.85e+06,1.8779e+06,1.9151e+06
NaN,-2107.6,9956.1,55575,1.0073e+05,1.5156e+05,1.976e+05,2.3301e+05,2.8211e+05,3.3182e+05,3.7977e+05,4.24e+05,4.7092e+05,5.2025e+05,5.6748e+05,6.1555e+05,6.6312e+05,7.0993e+05,7.5478e+05,7.9965e+05,8.4509e+05,8.9015e+05,9.3405e+05,9.7639e+05,1.0142e+06,1.0536e+06,1.1302e+06,1.1646e+06,1.1983e+06,1.2337e+06,1.2662e+06,1.3003e+06,1.3372e+06,1.3767e+06,1.416e+06,1.456e+06,1.4689e+06,1.5187e+06,1.5474e+06,1.5874e+06,1.6276e+06,1.6684e+06,1.688e+06,1.7069e+06,1.7265e+06,1.7475e+06,1.7825e+06,1.8168e+06,1.8482e+06,1.8758e+06,1.9137e+06
NaN,NaN,NaN,NaN,NaN,NaN,NaN,NaN,NaN,NaN,NaN,NaN,NaN,NaN,NaN,NaN,NaN,NaN,NaN,NaN,NaN,NaN,NaN,NaN,NaN,NaN,NaN,NaN,NaN,NaN,NaN,NaN,NaN,NaN,NaN,NaN,NaN,NaN,NaN,NaN,NaN,NaN,NaN,NaN,NaN,NaN,NaN,NaN,NaN,NaN,NaN
NaN,NaN,-704.62,33576,77091,1.1675e+05,1.612e+05,2.125e+05,2.4793e+05,2.9854e+05,3.5172e+05,3.9987e+05,4.4444e+05,4.9368e+05,5.4006e+05,5.843e+05,6.3395e+05,6.8225e+05,7.2875e+05,7.7412e+05,8.1882e+05,8.64e+05,9.0654e+05,9.5087e+05,9.8669e+05,1.0269e+06,NaN,1.1468e+06,1.1744e+06,1.2069e+06,1.2426e+06,NaN,NaN,1.3608e+06,1.4053e+06,1.4284e+06,NaN,1.4754e+06,1.5271e+06,1.555e+06,1.6049e+06,1.6526e+06,NaN,NaN,NaN,1.7397e+06,1.7591e+06,NaN,1.8397e+06,1.8627e+06,1.8881e+06
