NaN,-1357.4,11801,57995,63409,1.0722e+05,1.3804e+05,1.5262e+05,1.9978e+05,2.0912e+05,2.3475e+05,2.4053e+05,2.8405e+05,3.1121e+05,3.3269e+05,3.8304e+05,4.2788e+05,4.3591e+05,4.7238e+05,4.7938e+05,5.2198e+05,5.687e+05,6.1905e+05,6.6583e+05,6.7098e+05,7.117e+05,7.5793e+05,8.0104e+05,8.477e+05,8.922e+05,9.402e+05,9.4274e+05,9.7823e+05,9.9021e+05,1.0203e+06,1.0553e+06,1.0954e+06,1.1318e+06,1.137e+06,1.1653e+06,1.1774e+06,1.194e+06,1.2001e+06,1.2356e+06,1.2796e+06,1.2886e+06,1.3023e+06,1.3078e+06,1.34e+06,1.383e+06,1.4181e+06,1.4574e+06,1.4701e+06,1.4821e+06,1.491e+06,1.5245e+06,1.5483e+06,1.5951e+06,1.5983e+06,1.6297e+06,1.6703e+06,1.6777e+06,1.6855e+06,1.6959e+06,1.704e+06,1.7121e+06,1.7346e+06,1.7535e+06,1.7565e+06,1.7843e+06,1.8197e+06,1.8494e+06,1.8827e+06,1.9141e+06
NaN,-2032.6,10274,55463,55463,1.0072e+05,1.368e+05,1.5124e+05,1.9711e+05,1.9711e+05,2.3232e+05,2.3232e+05,2.8277e+05,3.1031e+05,3.3162e+05,3.7942e+05,4.2398e+05,4.2398e+05,4.7093e+05,4.7093e+05,5.2021e+05,5.6735e+05,6.1552e+05,6.6289e+05,6.6289e+05,7.1e+05,7.5431e+05,7.9929e+05,8.4482e+05,8.9007e+05,9.3403e+05,9.3403e+05,9.7462e+05,9.7462e+05,1.0137e+06,1.0529e+06,1.0942e+06,1.1288e+06,1.1288e+06,1.1636e+06,1.174e+06,1.1901e+06,1.1901e+06,1.2339e+06,1.2759e+06,1.2841e+06,1.2841e+06,1.2841e+06,1.3363e+06,1.3772e+06,1.4165e+06,1.4545e+06,1.4545e+06,1.4776e+06,1.4888e+06,1.5181e+06,1.5473e+06,1.588e+06,1.588e+06,1.628e+06,1.6678e+06,1.6678e+06,1.6678e+06,1.6942e+06,1.6942e+06,1.7084e+06,1.7334e+06,1.7469e+06,1.7469e+06,1.782e+06,1.8175e+06,1.8468e+06,1.8764e+06,1.9131e+06
NaN,NaN,NaN,NaN,NaN,NaN,NaN,NaN,NaN,NaN,NaN,NaN,NaN,NaN,NaN,NaN,NaN,NaN,NaN,NaN,NaN,NaN,NaN,NaN,NaN,NaN,NaN,NaN,NaN,NaN,NaN,NaN,NaN,NaN,NaN,NaN,NaN,NaN,NaN,NaN,NaN,NaN,NaN,NaN,NaN,NaN,NaN,NaN,NaN,NaN,NaN,NaN,NaN,NaN,NaN,NaN,NaN,NaN,NaN,NaN,NaN,NaN,NaN,NaN,NaN,NaN,NaN,NaN,NaN,NaN,NaN,NaN,NaN,NaN
NaN,NaN,-579.35,25921,NaN,NaN,1.3165e+05,1.4321e+05,1.7974e+05,NaN,2.1377e+05,NaN,2.4792e+05,2.9479e+05,3.1282e+05,3.4113e+05,3.9878e+05,NaN,4.4941e+05,NaN,4.9394e+05,5.4067e+05,5.8252e+05,6.3056e+05,NaN,6.7866e+05,7.3522e+05,7.7175e+05,8.1543e+05,8.618e+05,9.0705e+05,NaN,9.4907e+05,9.8533e+05,NaN,1.0331e+06,1.0626e+06,1.0984e+06,NaN,1.1474e+06,NaN,1.1814e+06,NaN,1.2189e+06,1.242e+06,NaN,NaN,NaN,NaN,1.3589e+06,1.3916e+06,1.4247e+06,NaN,NaN,NaN,NaN,1.5304e+06,1.5549e+06,NaN,1.6086e+06,1.6405e+06,NaN,NaN,1.6887e+06,NaN,NaN,1.7224e+06,1.7385e+06,NaN,NaN,1.795e+06,1.8297e+06,NaN,1.8876e+06
