      -0.039,          NaN,        0.000,
       0.204,        0.243,        0.000,
       0.670,        0.466,        0.000,
       0.922,        0.252,        1.000,
       1.339,        0.417,        0.000,
       1.778,        0.439,        0.000,
       1.881,        0.103,        0.000,
       2.234,        0.353,        1.000,
       2.498,        0.264,        1.000,
       2.859,        0.361,        1.000,
       3.241,        0.382,        1.000,
       3.468,        0.227,        0.000,
       3.705,        0.237,        2.000,
       4.023,        0.318,        1.000,
       4.225,        0.203,        0.000,
       4.625,        0.400,        1.000,
       4.845,        0.220,        0.000,
       5.129,        0.284,        1.000,
       5.693,        0.564,        3.000,
       6.123,        0.430,        1.000,
       6.610,        0.488,        0.000,
       6.823,        0.212,        0.000,
       7.373,        0.550,        3.000,
       8.001,        0.628,        3.000,
       8.221,        0.220,        0.000,
       8.663,        0.442,        1.000,
       9.181,        0.517,        1.000,
       9.422,        0.241,        0.000,
       9.674,        0.252,        0.000,
       9.966,        0.292,        1.000,
      10.600,        0.634,        3.000,
      10.836,        0.236,        0.000,
      11.433,        0.597,        3.000,
      11.871,        0.437,        1.000,
      12.342,        0.471,        0.000,
      12.776,        0.434,        2.000,
      13.608,        0.833,        3.000,
      13.769,        0.161,        0.000,
      14.413,        0.644,        3.000,
      14.614,        0.202,        0.000,
      15.224,        0.610,        3.000,
      15.599,        0.374,        2.000,
      16.112,        0.513,        0.000,
      16.563,        0.451,        2.000,
      16.805,        0.242,        0.000,
      17.293,        0.488,        2.000,
      17.605,        0.312,        2.000,
      18.055,        0.450,        2.000,
      18.464,        0.409,        2.000,
      18.794,        0.330,        2.000,
      18.883,        0.088,        0.000,
      19.356,        0.474,        2.000,
      19.554,        0.197,        0.000,
      20.020,        0.466,        2.000,
      20.691,        0.671,        3.000,
      21.076,        0.385,        2.000,
      21.341,        0.265,        0.000,
      21.904,        0.563,        0.000,
      23.199,        1.295,        0.000,
      23.986,        0.787,        3.000,
      24.449,        0.462,        2.000,
      24.678,        0.230,        0.000,
      25.312,        0.634,        0.000,
      25.923,        0.610,        0.000,
      26.172,        0.250,        0.000,
      26.742,        0.570,        2.000,
      27.506,        0.764,        3.000,
      28.107,        0.601,        0.000,
      28.456,        0.348,        2.000,
      28.629,        0.173,        0.000,
      29.067,        0.438,        2.000,
      29.303,        0.236,        0.000,
      29.816,        0.513,        2.000,
      30.185,        0.369,        2.000,
      30.417,        0.232,        0.000,
      30.733,        0.316,        2.000,
      31.103,        0.370,        2.000,
      31.269,        0.166,        0.000,
      31.488,        0.220,        0.000,
      31.941,        0.453,        2.000,
      32.425,        0.484,        2.000,
      32.764,        0.338,        2.000,
      33.109,        0.346,        2.000,
      33.677,        0.568,        0.000,
      34.500,        0.823,        3.000,
      35.593,        1.093,        0.000,
      36.040,        0.446,        2.000,
      36.237,        0.197,        0.000,
      37.097,        0.860,        3.000,
      37.547,        0.451,        2.000,
      37.778,        0.231,        0.000,
      38.153,        0.375,        2.000,
      38.553,        0.400,        2.000,
      38.891,        0.337,        2.000,
      39.303,        0.413,        2.000,
      39.562,        0.258,        0.000,
      40.026,        0.464,        2.000,
      40.322,        0.297,        0.000,
      40.485,        0.162,        0.000,
      40.868,        0.383,        2.000,
      41.163,        0.295,        0.000,
      41.575,        0.412,        2.000,
      41.859,        0.284,        0.000,
      42.066,        0.207,        0.000,
      42.596,        0.530,        2.000,
      42.983,        0.387,        2.000,
      43.180,        0.197,        0.000,
      43.611,        0.431,        2.000,
      43.713,        0.101,        0.000,
      44.053,        0.340,        2.000,
      44.531,        0.479,        2.000,
      44.727,        0.196,        0.000,
      45.228,        0.501,        2.000,
      45.498,        0.270,        0.000,
      46.083,        0.585,        0.000,
      46.371,        0.288,        0.000,
      46.792,        0.421,        2.000,
      47.192,        0.400,        2.000,
      47.691,        0.499,        2.000,
      48.162,        0.471,        2.000,
      48.573,        0.411,        2.000,
      48.802,        0.229,        0.000,
      49.486,        0.684,        0.000,
      49.757,        0.270,        0.000,
      50.099,        0.342,        2.000,
      50.340,        0.241,        0.000,
      50.841,        0.501,        2.000,
      52.152,        1.311,        0.000,
      52.454,        0.302,        0.000,
      52.767,        0.313,        2.000,
      53.375,        0.607,        3.000,
      53.478,        0.103,        0.000,
      54.069,        0.592,        3.000,
      54.633,        0.564,        3.000,
      55.049,        0.416,        2.000,
      55.562,        0.513,        0.000,
      55.881,        0.319,        2.000,
      56.423,        0.541,        3.000,
      56.797,        0.374,        2.000,
      57.077,        0.280,        2.000,
      57.666,        0.589,        3.000,
      58.406,        0.740,        3.000,
      59.001,        0.595,        3.000,
      59.362,        0.361,        2.000,
      59.746,        0.384,        2.000,
      59.980,        0.234,        0.000,
      60.343,        0.364,        2.000,
      60.718,        0.375,        2.000,
      61.001,        0.283,        2.000,
      61.485,        0.484,        0.000,
      61.715,        0.229,        0.000,
      62.133,        0.419,        2.000,
      62.546,        0.413,        2.000,
      62.892,        0.346,        2.000,
      63.113,        0.220,        0.000,
      63.617,        0.504,        0.000,
      63.938,        0.321,        2.000,
      64.191,        0.253,        0.000,
      64.924,        0.734,        3.000,
      65.319,        0.395,        2.000,
      65.733,        0.414,        2.000,
      65.818,        0.085,        0.000,
      66.428,        0.610,        0.000,
      66.972,        0.545,        0.000,
      67.136,        0.163,        0.000,
      67.564,        0.429,        2.000,
      68.043,        0.479,        2.000,
      68.417,        0.373,        2.000,
      68.867,        0.450,        2.000,
      69.209,        0.342,        2.000,
      69.812,        0.603,        0.000,
      70.235,        0.423,        2.000,
      70.527,        0.292,        0.000,
      71.041,        0.514,        2.000,
      71.643,        0.602,        0.000,
      71.842,        0.199,        0.000,
      72.138,        0.296,        0.000,
      72.483,        0.345,        2.000,
      73.066,        0.583,        0.000,
      73.568,        0.502,        2.000,
      74.082,        0.514,        2.000,
      74.600,        0.518,        2.000,
      75.060,        0.459,        2.000,
      75.528,        0.469,        2.000,
      75.996,        0.468,        2.000,
      76.482,        0.486,        2.000,
      76.959,        0.477,        2.000,
      77.437,        0.479,        2.000,
      77.721,        0.284,        0.000,
      77.900,        0.178,        0.000,
      78.354,        0.455,        2.000,
      78.828,        0.473,        2.000,
      79.317,        0.490,        2.000,
      79.760,        0.443,        2.000,
      80.249,        0.488,        2.000,
      80.695,        0.446,        2.000,
      81.180,        0.485,        2.000,
      81.660,        0.480,        2.000,
      81.846,        0.185,        0.000,
      82.438,        0.592,        2.000,
      82.675,        0.237,        0.000,
      83.084,        0.409,        2.000,
      83.571,        0.487,        2.000,
      84.009,        0.437,        2.000,
      84.499,        0.491,        2.000,
      84.952,        0.453,        2.000,
      85.419,        0.466,        2.000,
      85.871,        0.452,        2.000,
      86.330,        0.459,        2.000,
      86.811,        0.480,        2.000,
      87.303,        0.493,        2.000,
      87.771,        0.468,        2.000,
      88.241,        0.469,        2.000,
      88.693,        0.452,        2.000,
      89.155,        0.462,        2.000,
      89.646,        0.491,        0.000,
      90.093,        0.447,        2.000,
      90.572,        0.479,        2.000,
      91.041,        0.468,        2.000,
      91.505,        0.464,        2.000,
      91.951,        0.446,        2.000,
      92.263,        0.312,        0.000,
      92.879,        0.616,        0.000,
      93.088,        0.209,        0.000,
      93.383,        0.295,        0.000,
      93.851,        0.467,        2.000,
      94.137,        0.287,        0.000,
      94.759,        0.621,        2.000,
      94.810,        0.051,        0.000,
      95.081,        0.271,        0.000,
      95.544,        0.463,        2.000,
      96.022,        0.478,        2.000,
      96.231,        0.209,        0.000,
      96.485,        0.254,        0.000,
      96.974,        0.489,        2.000,
      97.425,        0.452,        2.000,
      97.891,        0.466,        2.000,
      98.139,        0.248,        0.000,
      98.548,        0.408,        2.000,
      99.010,        0.462,        2.000,
      99.313,        0.303,        0.000,
      99.788,        0.475,        2.000,
     100.022,        0.234,        0.000,
     100.259,        0.237,        0.000,
     100.769,        0.510,        2.000,
     101.224,        0.455,        2.000,
     101.602,        0.377,        2.000,
     101.719,        0.117,        0.000,
     102.329,        0.610,        0.000,
     103.305,        0.976,        3.000,
     103.349,        0.044,        0.000,
     103.762,        0.413,        2.000,
     104.101,        0.338,        2.000,
     104.729,        0.628,        0.000,
     105.147,        0.418,        2.000,
     105.305,        0.158,        0.000,
     105.545,        0.240,        0.000,
     105.727,        0.182,        0.000,
     106.571,        0.844,        3.000,
     106.775,        0.204,        0.000,
     107.085,        0.311,        2.000,
     107.769,        0.684,        3.000,
     108.197,        0.427,        2.000,
     108.451,        0.255,        0.000,
     109.041,        0.590,        0.000,
     109.688,        0.647,        3.000,
     110.065,        0.378,        2.000,
     110.433,        0.368,        2.000,
     110.687,        0.253,        0.000,
     111.505,        0.818,        3.000,
     111.880,        0.375,        2.000,
     112.538,        0.658,        3.000,
     112.871,        0.333,        2.000,
     113.514,        0.643,        3.000,
     113.973,        0.459,        2.000,
     114.523,        0.550,        0.000,
     114.885,        0.361,        2.000,
     115.177,        0.293,        2.000,
     115.394,        0.217,        0.000,
     115.686,        0.292,        2.000,
     116.113,        0.427,        2.000,
     116.513,        0.401,        2.000,
     116.893,        0.379,        2.000,
     117.537,        0.644,        3.000,
     117.692,        0.155,        0.000,
     118.195,        0.503,        0.000,
     118.666,        0.471,        2.000,
     119.910,        1.244,        0.000,
     120.203,        0.294,        2.000,
     120.557,        0.353,        2.000,
     120.675,        0.118,        0.000,
     120.916,        0.242,        0.000,
     121.554,        0.638,        3.000,
     121.747,        0.193,        0.000,
     122.083,        0.336,        2.000,
     122.497,        0.413,        2.000,
     122.970,        0.474,        2.000,
     123.518,        0.548,        0.000,
     123.824,        0.306,        2.000,
     124.041,        0.217,        0.000,
     124.573,        0.532,        0.000,
     125.342,        0.769,        3.000,
     125.616,        0.273,        2.000,
     126.130,        0.515,        0.000,
     126.357,        0.227,        0.000,
     126.638,        0.281,        2.000,
     127.270,        0.632,        3.000,
     127.395,        0.124,        0.000,
     127.682,        0.287,        2.000,
     127.987,        0.305,        2.000,
     128.433,        0.446,        0.000,
     129.010,        0.576,        3.000,
     129.214,        0.204,        0.000,
     129.516,        0.302,        2.000,
     130.025,        0.509,        0.000,
     130.244,        0.220,        0.000,
     130.537,        0.293,        2.000,
     130.992,        0.454,        0.000,
     131.261,        0.269,        2.000,
     132.021,        0.760,        0.000,
     132.333,        0.312,        2.000,
     132.582,        0.249,        2.000,
     132.801,        0.219,        0.000,
     133.093,        0.292,        2.000,
     133.613,        0.519,        3.000,
     134.091,        0.478,        0.000,
     134.375,        0.284,        2.000,
     134.856,        0.481,        0.000,
     135.150,        0.294,        2.000,
     135.919,        0.769,        0.000,
     136.207,        0.288,        2.000,
     136.523,        0.317,        2.000,
     136.875,        0.352,        2.000,
     137.107,        0.232,        2.000,
     137.830,        0.724,        0.000,
     138.351,        0.521,        3.000,
     138.902,        0.550,        3.000,
     139.378,        0.477,        3.000,
     139.692,        0.313,        2.000,
     140.208,        0.516,        3.000,
     140.419,        0.211,        0.000,
     140.739,        0.320,        2.000,
     141.027,        0.289,        2.000,
     141.757,        0.730,        0.000,
     142.058,        0.301,        2.000,
     142.550,        0.492,        3.000,
     142.808,        0.258,        2.000,
     143.289,        0.481,        3.000,
     143.532,        0.243,        2.000,
     143.837,        0.305,        2.000,
     144.624,        0.787,        0.000,
     144.923,        0.298,        2.000,
     145.117,        0.194,        0.000,
     145.358,        0.241,        2.000,
     145.627,        0.270,        2.000,
     146.396,        0.769,        0.000,
     146.660,        0.263,        2.000,
     147.176,        0.516,        3.000,
     147.427,        0.252,        2.000,
     147.706,        0.279,        2.000,
     148.069,        0.362,        0.000,
     148.425,        0.356,        2.000,
     148.677,        0.253,        2.000,
     149.234,        0.556,        3.000,
     149.477,        0.243,        2.000,
     149.774,        0.297,        2.000,
     150.142,        0.368,        0.000,
     150.412,        0.271,        2.000,
     150.674,        0.262,        2.000,
     150.860,        0.186,        0.000,
     151.136,        0.276,        2.000,
     151.370,        0.233,        2.000,
     151.651,        0.281,        2.000,
     151.888,        0.237,        2.000,
     152.201,        0.313,        2.000,
     152.482,        0.280,        2.000,
     152.733,        0.251,        2.000,
     153.125,        0.392,        0.000,
     153.243,        0.118,        0.000,
     153.536,        0.293,        2.000,
     153.933,        0.397,        0.000,
     154.574,        0.641,        0.000,
     154.966,        0.392,        0.000,
     155.546,        0.580,        3.000,
     156.012,        0.466,        0.000,
     156.396,        0.384,        0.000,
     156.691,        0.295,        2.000,
     157.163,        0.472,        0.000,
     157.687,        0.523,        3.000,
     158.141,        0.455,        0.000,
     158.782,        0.641,        0.000,
     159.084,        0.302,        2.000,
     159.854,        0.770,        0.000,
     160.180,        0.327,        2.000,
     160.662,        0.482,        0.000,
     160.900,        0.237,        2.000,
     161.226,        0.326,        2.000,
     161.700,        0.474,        3.000,
     162.242,        0.543,        3.000,
     163.293,        1.050,        0.000,
     163.623,        0.330,        2.000,
     163.874,        0.251,        2.000,
     164.352,        0.478,        3.000,
     165.018,        0.666,        3.000,
     165.589,        0.571,        3.000,
     166.073,        0.483,        3.000,
     166.887,        0.814,        0.000,
     167.142,        0.255,        2.000,
     167.757,        0.615,        3.000,
     168.553,        0.796,        0.000,
     168.869,        0.316,        2.000,
     169.119,        0.250,        2.000,
     169.656,        0.537,        3.000,
     170.200,        0.544,        3.000,
     170.467,        0.267,        2.000,
     171.050,        0.584,        3.000,
     171.333,        0.283,        2.000,
     172.150,        0.817,        0.000,
     172.738,        0.588,        3.000,
     173.036,        0.298,        2.000,
     173.184,        0.148,        0.000,
     173.526,        0.343,        2.000,
     174.097,        0.571,        3.000,
     174.552,        0.454,        0.000,
     174.829,        0.278,        2.000,
     175.522,        0.693,        0.000,
     176.322,        0.801,        0.000,
     176.666,        0.344,        2.000,
     177.747,        1.080,        0.000,
     178.090,        0.343,        2.000,
     178.442,        0.352,        2.000,
     178.981,        0.539,        0.000,
     179.518,        0.537,        0.000,
     180.145,        0.626,        0.000,
     180.702,        0.557,        0.000,
     181.191,        0.489,        0.000,
     181.883,        0.693,        3.000,
     182.234,        0.350,        2.000,
     183.110,        0.877,        0.000,
     183.739,        0.629,        0.000,
     184.331,        0.592,        0.000,
     184.952,        0.621,        0.000,
     185.534,        0.582,        0.000,
     186.114,        0.579,        0.000,
     186.692,        0.578,        0.000,
     187.265,        0.574,        1.000,
     187.861,        0.596,        1.000,
     188.428,        0.567,        2.000,
     189.053,        0.625,        0.000,
     189.550,        0.497,        0.000,
     190.347,        0.797,        0.000,
     190.618,        0.271,        0.000,
     191.026,        0.408,        0.000,
     191.397,        0.371,        0.000,
     191.753,        0.356,        0.000,
     192.109,        0.356,        0.000,
     192.357,        0.249,        0.000,
     192.755,        0.398,        0.000,
     193.250,        0.495,        1.000,
     193.850,        0.600,        2.000,
     194.796,        0.946,        3.000,
     195.600,        0.804,        0.000,
     196.753,        1.153,        3.000,
     197.566,        0.813,        0.000,
     197.940,        0.374,        0.000,
     198.692,        0.752,        0.000,
     199.098,        0.406,        2.000,
     199.510,        0.412,        2.000,
     199.888,        0.378,        2.000,
     200.258,        0.371,        2.000,
     200.576,        0.317,        2.000,
     201.042,        0.466,        2.000,
     201.409,        0.367,        2.000,
     202.169,        0.760,        3.000,
     203.338,        1.169,        0.000,
     203.747,        0.408,        2.000,
     204.086,        0.340,        2.000,
     204.525,        0.439,        2.000,
     204.909,        0.384,        2.000,
     205.710,        0.801,        3.000,
     206.110,        0.401,        2.000,
     206.475,        0.365,        2.000,
     206.886,        0.410,        2.000,
     207.274,        0.388,        2.000,
     207.664,        0.390,        2.000,
     208.067,        0.404,        2.000,
     208.455,        0.388,        2.000,
     209.245,        0.790,        3.000,
     209.658,        0.413,        2.000,
     210.077,        0.419,        2.000,
     210.501,        0.424,        2.000,
     211.286,        0.785,        3.000,
     212.093,        0.808,        3.000,
     212.487,        0.394,        2.000,
     212.890,        0.403,        2.000,
     213.285,        0.395,        2.000,
     213.653,        0.367,        2.000,
     214.452,        0.799,        3.000,
     214.873,        0.421,        2.000,
     215.272,        0.399,        2.000,
     215.664,        0.392,        2.000,
     216.126,        0.461,        2.000,
     216.545,        0.420,        2.000,
     216.888,        0.342,        2.000,
     217.348,        0.460,        2.000,
     217.695,        0.347,        2.000,
     218.120,        0.425,        2.000,
     218.540,        0.419,        2.000,
     218.975,        0.436,        2.000,
     219.438,        0.462,        2.000,
     219.822,        0.385,        2.000,
     220.238,        0.416,        2.000,
     220.679,        0.441,        2.000,
     221.567,        0.888,        3.000,
     221.964,        0.397,        2.000,
     222.380,        0.416,        2.000,
     222.852,        0.471,        2.000,
     223.206,        0.354,        2.000,
     223.619,        0.413,        2.000,
     224.027,        0.409,        2.000,
     224.451,        0.423,        2.000,
     224.880,        0.429,        2.000,
     225.314,        0.435,        2.000,
     225.720,        0.405,        2.000,
     226.123,        0.403,        2.000,
     226.521,        0.398,        2.000,
     226.952,        0.431,        2.000,
     227.360,        0.409,        2.000,
     227.840,        0.480,        0.000,
     228.266,        0.426,        2.000,
     228.634,        0.369,        0.000,
     229.074,        0.439,        2.000,
     229.977,        0.904,        0.000,
     230.358,        0.381,        2.000,
     230.727,        0.369,        2.000,
     231.165,        0.438,        2.000,
     231.562,        0.396,        2.000,
     231.904,        0.342,        2.000,
     232.474,        0.570,        0.000,
     232.892,        0.418,        2.000,
     233.337,        0.445,        2.000,
     233.736,        0.399,        2.000,
     234.188,        0.451,        2.000,
     234.628,        0.440,        2.000,
     235.081,        0.453,        2.000,
     235.469,        0.388,        2.000,
     236.342,        0.873,        3.000,
     236.763,        0.421,        2.000,
     237.159,        0.395,        2.000,
     237.591,        0.432,        2.000,
     237.786,        0.195,        0.000,
     238.047,        0.261,        0.000,
     238.912,        0.866,        3.000,
     239.324,        0.411,        2.000,
     239.724,        0.400,        2.000,
     240.148,        0.424,        2.000,
     240.544,        0.396,        2.000,
     240.959,        0.415,        2.000,
     241.362,        0.403,        2.000,
     241.774,        0.412,        2.000,
     242.213,        0.439,        2.000,
     242.660,        0.447,        2.000,
     243.050,        0.390,        2.000,
     243.514,        0.465,        2.000,
     243.923,        0.409,        1.000,
     244.338,        0.414,        1.000,
     245.182,        0.844,        3.000,
     245.630,        0.448,        2.000,
     246.052,        0.422,        2.000,
     246.543,        0.491,        2.000,
     246.921,        0.379,        2.000,
     247.379,        0.458,        2.000,
     247.838,        0.459,        2.000,
     248.292,        0.454,        2.000,
     248.748,        0.455,        2.000,
     249.206,        0.459,        2.000,
     249.481,        0.275,        0.000,
     250.461,        0.980,        3.000,
     250.540,        0.079,        0.000,
     250.880,        0.341,        2.000,
     251.759,        0.879,        3.000,
     252.054,        0.295,        0.000,
     252.468,        0.414,        2.000,
     252.694,        0.225,        0.000,
     253.057,        0.363,        2.000,
     253.291,        0.234,        0.000,
     253.836,        0.545,        2.000,
     254.201,        0.366,        2.000,
     254.387,        0.186,        0.000,
     254.897,        0.510,        2.000,
     255.430,        0.533,        2.000,
     255.953,        0.523,        2.000,
     256.494,        0.541,        2.000,
     257.000,        0.507,        2.000,
     257.517,        0.516,        2.000,
     258.028,        0.511,        2.000,
     258.363,        0.335,        0.000,
     258.685,        0.321,        0.000,
     258.865,        0.180,        0.000,
     259.115,        0.250,        0.000,
     259.923,        0.808,        0.000,
     260.159,        0.236,        0.000,
     260.425,        0.266,        0.000,
     260.632,        0.207,        0.000,
     261.145,        0.513,        2.000,
     261.638,        0.492,        2.000,
     262.147,        0.509,        2.000,
     262.651,        0.504,        2.000,
     263.181,        0.531,        2.000,
     263.706,        0.525,        2.000,
     264.048,        0.342,        0.000,
     264.257,        0.209,        0.000,
     264.728,        0.471,        2.000,
     265.053,        0.326,        0.000,
     265.254,        0.201,        0.000,
     265.567,        0.313,        0.000,
     265.805,        0.238,        0.000,
     266.053,        0.248,        0.000,
     266.289,        0.236,        0.000,
     266.808,        0.520,        2.000,
     267.339,        0.530,        2.000,
     267.859,        0.520,        2.000,
     268.175,        0.315,        0.000,
     268.386,        0.211,        0.000,
     268.890,        0.505,        2.000,
     269.181,        0.290,        0.000,
     269.420,        0.239,        0.000,
     269.718,        0.298,        0.000,
     269.926,        0.208,        0.000,
     270.268,        0.343,        0.000,
     270.458,        0.190,        0.000,
     270.750,        0.292,        0.000,
     271.279,        0.529,        2.000,
     271.479,        0.200,        0.000,
     271.746,        0.267,        0.000,
     272.020,        0.274,        0.000,
     272.211,        0.191,        0.000,
     272.546,        0.335,        0.000,
     273.024,        0.478,        2.000,
     273.218,        0.194,        0.000,
     273.713,        0.495,        2.000,
     274.293,        0.580,        2.000,
     274.580,        0.287,        0.000,
     275.123,        0.542,        2.000,
     275.613,        0.490,        2.000,
     276.154,        0.541,        2.000,
     276.868,        0.714,        0.000,
     277.300,        0.432,        2.000,
     278.014,        0.714,        0.000,
     278.418,        0.404,        2.000,
     278.759,        0.342,        0.000,
     278.996,        0.237,        0.000,
     279.441,        0.445,        2.000,
     279.950,        0.509,        2.000,
     280.093,        0.143,        0.000,
     280.317,        0.224,        0.000,
     280.623,        0.306,        0.000,
     281.400,        0.778,        0.000,
     281.712,        0.312,        0.000,
     281.931,        0.219,        0.000,
     282.452,        0.521,        2.000,
     282.965,        0.512,        2.000,
     283.667,        0.703,        0.000,
     284.015,        0.347,        0.000,
     284.282,        0.268,        0.000,
     284.536,        0.253,        0.000,
     285.059,        0.524,        2.000,
     285.335,        0.276,        0.000,
     285.754,        0.418,        2.000,
     285.981,        0.227,        0.000,
     286.232,        0.251,        0.000,
     287.233,        1.001,        3.000,
     287.446,        0.213,        0.000,
     287.838,        0.392,        2.000,
     288.250,        0.411,        2.000,
     288.648,        0.399,        2.000,
     288.744,        0.095,        0.000,
     289.367,        0.623,        0.000,
     289.729,        0.362,        2.000,
     290.013,        0.284,        0.000,
     290.251,        0.239,        0.000,
     290.771,        0.519,        2.000,
     291.055,        0.284,        0.000,
     291.434,        0.380,        2.000,
     291.783,        0.349,        2.000,
     291.973,        0.190,        0.000,
     292.288,        0.315,        2.000,
     292.473,        0.185,        0.000,
     292.820,        0.347,        2.000,
     293.185,        0.365,        2.000,
     293.858,        0.673,        3.000,
     294.406,        0.549,        0.000,
     294.677,        0.270,        2.000,
     294.933,        0.256,        0.000,
     295.329,        0.396,        2.000,
     295.733,        0.404,        2.000,
     295.959,        0.226,        0.000,
     296.263,        0.304,        2.000,
     296.509,        0.246,        0.000,
     296.757,        0.248,        0.000,
     297.021,        0.265,        2.000,
     297.252,        0.231,        0.000,
     297.704,        0.452,        0.000,
     298.078,        0.374,        2.000,
     298.280,        0.202,        0.000,
     298.841,        0.561,        3.000,
     299.221,        0.380,        2.000,
     299.817,        0.596,        3.000,
     300.365,        0.548,        3.000,
     300.633,        0.268,        2.000,
     300.911,        0.278,        2.000,
     301.459,        0.548,        3.000,
     301.894,        0.435,        0.000,
     302.400,        0.506,        3.000,
     302.747,        0.347,        2.000,
     303.050,        0.302,        2.000,
     303.597,        0.547,        3.000,
     304.604,        1.008,        0.000,
     304.912,        0.307,        2.000,
     305.113,        0.202,        0.000,
     305.460,        0.347,        2.000,
     305.662,        0.202,        0.000,
     306.184,        0.522,        3.000,
     306.409,        0.225,        0.000,
     306.675,        0.266,        2.000,
     306.967,        0.292,        2.000,
     307.202,        0.236,        2.000,
     307.713,        0.511,        3.000,
     307.928,        0.215,        0.000,
     308.230,        0.301,        2.000,
     308.762,        0.532,        3.000,
     308.955,        0.193,        0.000,
     309.465,        0.510,        3.000,
     309.962,        0.496,        3.000,
     310.662,        0.700,        0.000,
     310.982,        0.320,        2.000,
     311.692,        0.710,        0.000,
     312.007,        0.315,        2.000,
     312.613,        0.606,        3.000,
     313.132,        0.519,        3.000,
     314.169,        1.037,        0.000,
     314.679,        0.510,        3.000,
     314.963,        0.283,        2.000,
     315.883,        0.921,        0.000,
     316.235,        0.352,        2.000,
     316.752,        0.517,        3.000,
     317.026,        0.274,        2.000,
     317.411,        0.385,        0.000,
     318.162,        0.752,        0.000,
     318.537,        0.375,        2.000,
     319.328,        0.791,        0.000,
     320.021,        0.692,        3.000,
     320.471,        0.450,        0.000,
     320.850,        0.379,        2.000,
     321.072,        0.221,        0.000,
     321.544,        0.472,        0.000,
     321.936,        0.392,        2.000,
     322.213,        0.277,        0.000,
     322.587,        0.374,        2.000,
     322.672,        0.085,        0.000,
     323.086,        0.414,        2.000,
     323.457,        0.370,        2.000,
     324.255,        0.798,        3.000,
     324.648,        0.393,        2.000,
     325.199,        0.551,        0.000,
     325.765,        0.566,        0.000,
     326.200,        0.435,        2.000,
     326.778,        0.578,        0.000,
     327.176,        0.398,        2.000,
     327.827,        0.651,        0.000,
     328.991,        1.164,        0.000,
     329.360,        0.370,        2.000,
     329.889,        0.528,        2.000,
     330.083,        0.194,        0.000,
     330.389,        0.306,        0.000,
     331.244,        0.855,        3.000,
     331.519,        0.275,        0.000,
     332.523,        1.004,        3.000,
     333.040,        0.517,        2.000,
     333.785,        0.744,        3.000,
     334.084,        0.299,        0.000,
     334.621,        0.537,        2.000,
     335.238,        0.617,        2.000,
     335.974,        0.736,        0.000,
     336.496,        0.523,        2.000,
     336.747,        0.251,        0.000,
     337.047,        0.300,        0.000,
     338.126,        1.080,        3.000,
     338.549,        0.423,        2.000,
     338.712,        0.163,        0.000,
     339.235,        0.523,        2.000,
     339.595,        0.360,        0.000,
     340.302,        0.707,        0.000,
     340.661,        0.359,        0.000,
     341.386,        0.725,        0.000,
     341.755,        0.369,        2.000,
     342.455,        0.699,        0.000,
     342.919,        0.464,        2.000,
     343.196,        0.277,        0.000,
     343.876,        0.680,        0.000,
     344.393,        0.517,        2.000,
     344.581,        0.188,        0.000,
     344.946,        0.365,        2.000,
     346.442,        1.497,        0.000,
     346.746,        0.304,        0.000,
