       0.076,          NaN,        0.000,
       0.254,        0.179,        0.000,
       0.466,        0.211,        0.000,
       0.777,        0.311,        0.000,
       1.257,        0.480,        0.000,
       1.632,        0.375,        1.000,
       1.962,        0.331,        1.000,
       2.267,        0.305,        1.000,
       2.602,        0.335,        1.000,
       2.859,        0.257,        1.000,
       3.071,        0.212,        0.000,
       3.675,        0.604,        3.000,
       3.973,        0.297,        1.000,
       4.351,        0.378,        1.000,
       4.594,        0.243,        0.000,
       5.197,        0.603,        3.000,
       5.574,        0.377,        1.000,
       5.747,        0.173,        0.000,
       6.044,        0.297,        1.000,
       6.618,        0.574,        3.000,
       7.182,        0.564,        3.000,
       7.414,        0.232,        2.000,
       7.996,        0.582,        3.000,
       8.251,        0.255,        2.000,
       8.581,        0.330,        1.000,
       9.074,        0.493,        3.000,
       9.426,        0.352,        1.000,
       9.935,        0.509,        3.000,
      10.128,        0.193,        0.000,
      10.362,        0.233,        2.000,
      10.595,        0.233,        2.000,
      10.814,        0.220,        0.000,
      11.277,        0.462,        3.000,
      11.857,        0.580,        3.000,
      12.103,        0.246,        2.000,
      12.483,        0.379,        0.000,
      12.723,        0.240,        2.000,
      13.118,        0.396,        0.000,
      13.362,        0.244,        2.000,
      13.629,        0.267,        2.000,
      14.511,        0.882,        0.000,
      14.680,        0.169,        0.000,
      14.885,        0.205,        0.000,
      15.194,        0.309,        2.000,
      15.434,        0.240,        2.000,
      15.742,        0.308,        2.000,
      15.902,        0.160,        0.000,
      16.326,        0.425,        0.000,
      16.550,        0.224,        0.000,
      16.930,        0.380,        0.000,
      17.191,        0.262,        2.000,
      17.609,        0.418,        0.000,
      17.940,        0.331,        2.000,
      18.123,        0.183,        0.000,
      18.492,        0.368,        2.000,
      19.222,        0.730,        3.000,
      19.550,        0.328,        2.000,
      20.114,        0.564,        3.000,
      20.440,        0.326,        2.000,
      20.664,        0.223,        0.000,
      21.074,        0.410,        2.000,
      21.321,        0.247,        2.000,
      22.000,        0.679,        3.000,
      22.080,        0.080,        0.000,
      23.250,        1.170,        0.000,
      23.522,        0.272,        2.000,
      24.658,        1.136,        0.000,
      24.906,        0.247,        2.000,
      25.722,        0.816,        0.000,
      25.948,        0.226,        0.000,
      26.523,        0.574,        3.000,
      26.695,        0.173,        0.000,
      27.195,        0.500,        3.000,
      27.518,        0.323,        2.000,
      28.115,        0.597,        3.000,
      28.553,        0.439,        0.000,
      28.867,        0.313,        2.000,
      29.314,        0.447,        0.000,
      29.815,        0.501,        3.000,
      30.081,        0.266,        2.000,
      30.437,        0.356,        2.000,
      30.706,        0.269,        2.000,
      30.971,        0.265,        2.000,
      31.291,        0.320,        2.000,
      31.445,        0.154,        0.000,
      31.893,        0.447,        0.000,
      32.993,        1.101,        0.000,
      33.414,        0.420,        0.000,
      33.644,        0.230,        0.000,
      34.378,        0.734,        0.000,
      34.610,        0.232,        2.000,
      35.053,        0.444,        0.000,
      35.132,        0.079,        0.000,
      35.447,        0.315,        2.000,
      35.606,        0.159,        0.000,
      35.914,        0.308,        2.000,
      36.449,        0.536,        3.000,
      36.922,        0.473,        3.000,
      37.107,        0.185,        0.000,
      37.353,        0.246,        2.000,
      37.689,        0.336,        2.000,
      37.921,        0.231,        2.000,
      38.284,        0.363,        0.000,
      38.661,        0.377,        0.000,
      38.820,        0.159,        0.000,
      39.439,        0.619,        3.000,
      39.597,        0.159,        0.000,
      40.071,        0.473,        3.000,
      40.162,        0.091,        0.000,
      40.570,        0.408,        0.000,
      40.794,        0.223,        0.000,
      41.388,        0.594,        3.000,
      42.016,        0.627,        3.000,
      42.408,        0.393,        0.000,
      42.816,        0.408,        0.000,
      43.271,        0.455,        1.000,
      43.813,        0.542,        1.000,
      44.524,        0.711,        3.000,
      44.884,        0.361,        2.000,
      45.281,        0.396,        1.000,
      45.836,        0.555,        1.000,
      46.124,        0.288,        0.000,
      46.216,        0.092,        0.000,
      46.619,        0.402,        2.000,
      47.178,        0.560,        2.000,
      47.548,        0.369,        2.000,
      47.798,        0.250,        0.000,
      48.135,        0.337,        2.000,
      48.607,        0.472,        2.000,
      48.897,        0.290,        0.000,
      49.483,        0.586,        0.000,
      49.761,        0.278,        0.000,
      50.320,        0.559,        2.000,
      50.553,        0.233,        0.000,
      50.892,        0.340,        2.000,
      51.560,        0.668,        3.000,
      51.765,        0.205,        0.000,
      52.185,        0.420,        2.000,
      52.421,        0.236,        0.000,
      52.737,        0.317,        2.000,
      53.123,        0.386,        2.000,
      53.357,        0.234,        0.000,
      53.670,        0.312,        2.000,
      53.943,        0.274,        2.000,
      54.160,        0.217,        0.000,
      54.506,        0.346,        2.000,
      55.086,        0.580,        3.000,
      55.346,        0.260,        2.000,
      55.879,        0.533,        3.000,
      56.349,        0.470,        0.000,
      56.589,        0.240,        2.000,
      56.811,        0.222,        0.000,
      57.032,        0.221,        0.000,
      57.369,        0.337,        2.000,
      57.613,        0.244,        2.000,
      57.974,        0.361,        2.000,
      58.161,        0.187,        0.000,
      58.848,        0.687,        3.000,
      59.334,        0.487,        3.000,
      59.666,        0.332,        2.000,
      59.961,        0.294,        2.000,
      60.504,        0.543,        3.000,
      60.992,        0.489,        3.000,
      61.398,        0.406,        0.000,
      61.873,        0.475,        3.000,
      62.108,        0.235,        2.000,
      62.998,        0.890,        0.000,
      63.610,        0.611,        3.000,
      64.007,        0.397,        0.000,
      64.116,        0.109,        0.000,
      64.528,        0.412,        0.000,
      64.735,        0.207,        0.000,
      64.976,        0.241,        2.000,
      65.174,        0.199,        0.000,
      65.591,        0.417,        0.000,
      65.815,        0.223,        0.000,
      66.367,        0.552,        3.000,
      66.626,        0.259,        2.000,
      66.933,        0.307,        2.000,
      67.137,        0.204,        0.000,
      67.372,        0.235,        2.000,
      67.561,        0.189,        0.000,
      67.759,        0.198,        0.000,
      68.026,        0.267,        2.000,
      68.601,        0.575,        3.000,
      69.257,        0.656,        0.000,
      69.810,        0.553,        3.000,
      70.232,        0.422,        0.000,
      70.534,        0.302,        2.000,
      71.033,        0.499,        3.000,
      71.840,        0.807,        0.000,
      72.482,        0.642,        0.000,
      73.059,        0.577,        3.000,
      73.566,        0.507,        3.000,
      74.081,        0.514,        3.000,
      74.596,        0.515,        3.000,
      75.056,        0.460,        0.000,
      75.520,        0.464,        0.000,
      76.003,        0.482,        3.000,
      76.483,        0.480,        3.000,
      76.951,        0.468,        1.000,
      77.395,        0.444,        1.000,
      77.716,        0.321,        0.000,
      78.349,        0.633,        3.000,
      78.822,        0.473,        1.000,
      79.308,        0.486,        1.000,
      79.751,        0.443,        1.000,
      80.249,        0.497,        1.000,
      80.698,        0.449,        1.000,
      81.176,        0.478,        1.000,
      81.635,        0.459,        2.000,
      82.145,        0.511,        2.000,
      82.381,        0.236,        0.000,
      83.082,        0.700,        0.000,
      83.571,        0.489,        2.000,
      84.011,        0.441,        2.000,
      84.488,        0.476,        2.000,
      84.948,        0.460,        2.000,
      85.418,        0.470,        2.000,
      85.862,        0.444,        2.000,
      86.813,        0.951,        3.000,
      87.766,        0.953,        3.000,
      88.237,        0.471,        2.000,
      88.686,        0.448,        2.000,
      89.158,        0.473,        2.000,
      89.644,        0.485,        2.000,
      89.835,        0.191,        0.000,
      90.087,        0.252,        0.000,
      90.564,        0.477,        2.000,
      91.039,        0.475,        2.000,
      91.501,        0.461,        2.000,
      91.764,        0.264,        0.000,
      92.008,        0.243,        0.000,
      92.263,        0.255,        0.000,
      92.875,        0.611,        2.000,
      93.653,        0.778,        0.000,
      93.855,        0.202,        0.000,
      94.125,        0.270,        0.000,
      94.769,        0.644,        2.000,
      95.077,        0.308,        0.000,
      96.024,        0.947,        3.000,
      96.492,        0.468,        2.000,
      96.946,        0.454,        2.000,
      97.420,        0.474,        2.000,
      97.890,        0.471,        2.000,
      98.796,        0.906,        3.000,
      99.316,        0.520,        2.000,
      99.539,        0.223,        0.000,
      99.789,        0.250,        0.000,
     100.263,        0.475,        2.000,
     100.735,        0.472,        2.000,
     101.204,        0.469,        2.000,
     101.398,        0.194,        0.000,
     101.722,        0.324,        0.000,
     102.329,        0.606,        2.000,
     103.112,        0.783,        0.000,
     103.337,        0.225,        0.000,
     103.554,        0.217,        0.000,
     103.760,        0.206,        0.000,
     104.085,        0.325,        0.000,
     104.724,        0.639,        2.000,
     105.155,        0.431,        2.000,
     105.335,        0.180,        0.000,
     105.563,        0.228,        0.000,
     106.561,        0.998,        3.000,
     107.094,        0.533,        2.000,
     107.776,        0.682,        2.000,
     108.457,        0.681,        2.000,
     109.042,        0.586,        2.000,
     109.674,        0.631,        2.000,
     110.700,        1.027,        3.000,
     111.032,        0.332,        0.000,
     111.889,        0.857,        0.000,
     112.538,        0.649,        2.000,
     112.873,        0.335,        0.000,
     113.398,        0.525,        2.000,
     113.863,        0.465,        2.000,
     114.518,        0.655,        2.000,
     114.876,        0.358,        0.000,
     115.396,        0.520,        2.000,
     115.688,        0.292,        0.000,
     116.520,        0.832,        0.000,
     116.906,        0.386,        0.000,
     117.397,        0.491,        2.000,
     117.693,        0.296,        0.000,
     118.203,        0.510,        2.000,
     118.671,        0.467,        2.000,
     119.376,        0.705,        2.000,
     119.984,        0.608,        2.000,
     120.194,        0.210,        0.000,
     120.394,        0.200,        0.000,
     120.694,        0.300,        0.000,
     120.915,        0.221,        0.000,
     121.557,        0.642,        2.000,
     121.745,        0.188,        0.000,
     122.087,        0.342,        0.000,
     122.974,        0.886,        0.000,
     123.524,        0.550,        2.000,
     124.046,        0.522,        2.000,
     124.575,        0.529,        2.000,
     125.075,        0.500,        2.000,
     125.317,        0.242,        0.000,
     125.724,        0.407,        2.000,
     126.131,        0.407,        2.000,
     126.378,        0.247,        0.000,
     126.777,        0.399,        2.000,
     127.188,        0.412,        2.000,
     127.679,        0.490,        2.000,
     127.985,        0.306,        0.000,
     128.319,        0.334,        0.000,
     129.004,        0.685,        0.000,
     129.223,        0.219,        0.000,
     129.520,        0.297,        0.000,
     130.035,        0.516,        2.000,
     130.239,        0.203,        0.000,
     130.540,        0.301,        0.000,
     130.754,        0.214,        0.000,
     131.021,        0.267,        0.000,
     131.270,        0.249,        0.000,
     132.023,        0.753,        0.000,
     132.571,        0.548,        2.000,
     132.806,        0.235,        0.000,
     133.075,        0.269,        0.000,
     133.608,        0.533,        2.000,
     133.835,        0.227,        0.000,
     134.383,        0.548,        2.000,
     134.865,        0.482,        2.000,
     135.142,        0.277,        0.000,
     135.916,        0.775,        0.000,
     136.200,        0.283,        0.000,
     136.516,        0.317,        0.000,
     136.774,        0.258,        0.000,
     137.104,        0.330,        0.000,
     137.841,        0.737,        0.000,
     138.127,        0.286,        0.000,
     138.349,        0.221,        0.000,
     138.905,        0.556,        2.000,
     139.419,        0.515,        2.000,
     139.955,        0.536,        2.000,
     140.211,        0.256,        0.000,
     140.737,        0.526,        2.000,
     141.018,        0.281,        0.000,
     141.234,        0.215,        0.000,
     141.758,        0.524,        2.000,
     142.263,        0.505,        2.000,
     142.549,        0.286,        0.000,
     142.803,        0.254,        0.000,
     143.294,        0.491,        2.000,
     143.591,        0.297,        0.000,
     143.813,        0.222,        0.000,
     144.336,        0.523,        2.000,
     144.622,        0.286,        0.000,
     144.933,        0.311,        0.000,
     145.103,        0.170,        0.000,
     145.362,        0.259,        0.000,
     145.659,        0.297,        0.000,
     145.871,        0.212,        0.000,
     146.393,        0.522,        2.000,
     146.674,        0.282,        0.000,
     147.170,        0.495,        2.000,
     147.436,        0.266,        0.000,
     147.702,        0.266,        0.000,
     147.918,        0.217,        0.000,
     148.235,        0.316,        0.000,
     148.442,        0.207,        0.000,
     148.700,        0.258,        0.000,
     149.235,        0.535,        2.000,
     149.771,        0.536,        2.000,
     150.147,        0.376,        0.000,
     150.397,        0.250,        0.000,
     150.673,        0.276,        0.000,
     151.418,        0.745,        0.000,
     151.673,        0.255,        0.000,
     151.894,        0.221,        0.000,
     152.470,        0.576,        2.000,
     152.735,        0.265,        0.000,
     152.953,        0.218,        0.000,
     153.239,        0.286,        0.000,
     153.476,        0.236,        0.000,
     153.919,        0.443,        2.000,
     154.574,        0.655,        2.000,
     154.952,        0.379,        0.000,
     155.568,        0.616,        2.000,
     156.016,        0.448,        2.000,
     156.393,        0.377,        0.000,
     156.700,        0.306,        0.000,
     157.172,        0.472,        2.000,
     157.612,        0.440,        2.000,
     157.724,        0.112,        0.000,
     158.150,        0.426,        2.000,
     158.517,        0.367,        2.000,
     158.816,        0.299,        0.000,
     159.630,        0.814,        3.000,
     159.916,        0.286,        0.000,
     160.593,        0.677,        0.000,
     160.944,        0.351,        2.000,
     161.696,        0.752,        3.000,
     162.244,        0.548,        0.000,
     162.517,        0.273,        0.000,
     163.051,        0.534,        0.000,
     163.306,        0.255,        0.000,
     163.621,        0.315,        2.000,
     163.863,        0.242,        0.000,
     164.367,        0.504,        0.000,
     164.739,        0.373,        2.000,
     165.009,        0.269,        2.000,
     165.273,        0.264,        2.000,
     165.585,        0.312,        2.000,
     165.829,        0.244,        2.000,
     166.103,        0.274,        2.000,
     166.393,        0.290,        2.000,
     166.887,        0.494,        3.000,
     167.150,        0.264,        2.000,
     167.468,        0.318,        2.000,
     167.728,        0.260,        2.000,
     168.573,        0.844,        0.000,
     169.126,        0.553,        3.000,
     169.656,        0.530,        3.000,
     170.204,        0.548,        3.000,
     170.477,        0.273,        2.000,
     170.757,        0.281,        2.000,
     171.047,        0.290,        2.000,
     171.342,        0.295,        2.000,
     171.875,        0.532,        3.000,
     172.751,        0.876,        0.000,
     173.028,        0.277,        2.000,
     173.226,        0.198,        0.000,
     173.543,        0.318,        2.000,
     174.290,        0.746,        0.000,
     174.559,        0.269,        2.000,
     174.835,        0.276,        2.000,
     175.531,        0.696,        0.000,
     176.340,        0.809,        0.000,
     176.668,        0.328,        2.000,
     178.460,        1.792,        0.000,
     178.981,        0.521,        3.000,
     179.526,        0.545,        3.000,
     180.158,        0.632,        3.000,
     180.706,        0.548,        3.000,
     181.288,        0.581,        3.000,
     181.904,        0.616,        3.000,
     182.234,        0.331,        2.000,
     183.146,        0.912,        0.000,
     183.733,        0.587,        3.000,
     184.344,        0.611,        3.000,
     184.937,        0.593,        3.000,
     185.532,        0.594,        3.000,
     186.128,        0.596,        3.000,
     186.696,        0.568,        0.000,
     187.265,        0.570,        0.000,
     187.856,        0.590,        3.000,
     188.484,        0.629,        1.000,
     189.055,        0.570,        1.000,
     189.323,        0.268,        0.000,
     189.695,        0.372,        2.000,
     191.023,        1.328,        0.000,
     191.421,        0.398,        2.000,
     191.879,        0.458,        2.000,
     192.356,        0.477,        2.000,
     193.555,        1.199,        0.000,
     193.830,        0.274,        0.000,
     194.314,        0.485,        2.000,
     194.787,        0.472,        2.000,
     195.635,        0.848,        3.000,
     201.506,        5.872,        0.000,
     202.535,        1.028,        1.000,
     203.870,        1.336,        1.000,
     204.406,        0.535,        0.000,
     204.891,        0.485,        0.000,
     205.700,        0.809,        0.000,
     206.083,        0.383,        0.000,
     206.482,        0.399,        0.000,
     206.851,        0.369,        0.000,
     207.232,        0.381,        0.000,
     207.666,        0.434,        1.000,
     208.071,        0.404,        1.000,
     208.428,        0.358,        1.000,
     209.209,        0.780,        3.000,
     209.656,        0.447,        2.000,
     210.531,        0.875,        3.000,
     210.721,        0.191,        0.000,
     211.283,        0.562,        0.000,
     212.100,        0.817,        3.000,
     212.486,        0.386,        2.000,
     212.879,        0.393,        2.000,
     213.659,        0.780,        3.000,
     214.548,        0.888,        3.000,
     214.862,        0.314,        2.000,
     215.256,        0.394,        2.000,
     215.663,        0.408,        2.000,
     216.148,        0.485,        2.000,
     216.447,        0.299,        2.000,
     216.934,        0.487,        2.000,
     217.306,        0.372,        2.000,
     217.693,        0.387,        2.000,
     218.098,        0.406,        2.000,
     218.521,        0.422,        2.000,
     218.768,        0.247,        0.000,
     219.049,        0.281,        0.000,
     219.390,        0.342,        2.000,
     219.793,        0.402,        2.000,
     220.268,        0.475,        2.000,
     220.541,        0.273,        0.000,
     220.765,        0.224,        0.000,
     221.592,        0.827,        3.000,
     221.873,        0.281,        0.000,
     222.047,        0.174,        0.000,
     222.391,        0.344,        2.000,
     222.859,        0.468,        2.000,
     223.297,        0.438,        2.000,
     223.694,        0.397,        2.000,
     224.021,        0.326,        2.000,
     224.452,        0.432,        2.000,
     224.888,        0.436,        2.000,
     225.298,        0.410,        2.000,
     225.712,        0.414,        2.000,
     226.153,        0.441,        2.000,
     227.133,        0.980,        3.000,
     227.391,        0.258,        0.000,
     227.795,        0.404,        2.000,
     228.242,        0.446,        2.000,
     228.488,        0.246,        0.000,
     228.761,        0.273,        0.000,
     229.068,        0.307,        0.000,
     229.765,        0.697,        0.000,
     230.006,        0.241,        0.000,
     230.353,        0.347,        2.000,
     230.740,        0.387,        2.000,
     230.933,        0.193,        0.000,
     231.162,        0.229,        0.000,
     231.746,        0.584,        0.000,
     231.907,        0.161,        0.000,
     232.934,        1.027,        0.000,
     233.600,        0.666,        3.000,
     234.183,        0.584,        0.000,
     234.382,        0.199,        0.000,
     234.628,        0.246,        0.000,
     235.051,        0.423,        2.000,
     236.317,        1.266,        0.000,
     236.801,        0.483,        2.000,
     237.599,        0.798,        3.000,
     237.799,        0.201,        0.000,
     238.047,        0.248,        0.000,
     238.279,        0.231,        0.000,
     238.947,        0.669,        0.000,
     239.598,        0.651,        0.000,
     239.768,        0.170,        0.000,
     240.143,        0.375,        2.000,
     240.511,        0.368,        2.000,
     240.953,        0.443,        2.000,
     241.774,        0.821,        3.000,
     242.017,        0.243,        0.000,
     242.294,        0.277,        0.000,
     242.615,        0.321,        2.000,
     242.892,        0.278,        0.000,
     243.101,        0.209,        0.000,
     243.471,        0.370,        2.000,
     244.337,        0.866,        3.000,
     245.168,        0.830,        3.000,
     245.579,        0.411,        2.000,
     245.907,        0.328,        2.000,
     246.518,        0.611,        0.000,
     246.967,        0.449,        2.000,
     247.367,        0.400,        2.000,
     247.831,        0.464,        2.000,
     248.155,        0.324,        2.000,
     248.373,        0.218,        0.000,
     248.729,        0.356,        2.000,
     249.392,        0.662,        3.000,
     250.458,        1.066,        0.000,
     250.886,        0.428,        2.000,
     251.767,        0.880,        3.000,
     252.055,        0.288,        2.000,
     252.464,        0.409,        2.000,
     252.689,        0.225,        0.000,
     253.056,        0.367,        2.000,
     253.286,        0.230,        0.000,
     253.845,        0.559,        0.000,
     254.216,        0.372,        2.000,
     254.390,        0.173,        0.000,
     254.894,        0.504,        2.000,
     255.437,        0.544,        0.000,
     255.955,        0.518,        2.000,
     256.491,        0.535,        2.000,
     257.003,        0.513,        1.000,
     257.518,        0.514,        1.000,
     258.035,        0.517,        1.000,
     258.576,        0.542,        1.000,
     258.872,        0.295,        0.000,
     259.127,        0.256,        0.000,
     259.907,        0.780,        0.000,
     260.157,        0.250,        0.000,
     260.428,        0.270,        0.000,
     260.633,        0.206,        0.000,
     261.142,        0.509,        2.000,
     261.636,        0.494,        2.000,
     262.138,        0.502,        2.000,
     262.655,        0.517,        2.000,
     263.179,        0.524,        2.000,
     263.706,        0.527,        2.000,
     264.264,        0.558,        2.000,
     264.738,        0.475,        2.000,
     265.262,        0.524,        2.000,
     265.559,        0.297,        0.000,
     265.813,        0.254,        0.000,
     266.056,        0.243,        0.000,
     266.294,        0.238,        0.000,
     266.806,        0.512,        2.000,
     267.335,        0.529,        2.000,
     267.852,        0.517,        2.000,
     268.180,        0.328,        0.000,
     268.383,        0.203,        0.000,
     268.886,        0.503,        2.000,
     269.231,        0.344,        0.000,
     269.575,        0.344,        0.000,
     269.715,        0.139,        0.000,
     269.926,        0.211,        0.000,
     270.271,        0.345,        0.000,
     270.460,        0.189,        0.000,
     270.746,        0.286,        0.000,
     271.204,        0.457,        2.000,
     271.490,        0.286,        0.000,
     271.715,        0.225,        0.000,
     272.018,        0.303,        0.000,
     272.279,        0.262,        0.000,
     272.533,        0.253,        0.000,
     273.203,        0.670,        0.000,
     273.359,        0.156,        0.000,
     273.707,        0.349,        0.000,
     274.222,        0.514,        2.000,
     274.629,        0.408,        2.000,
     275.130,        0.501,        2.000,
     275.351,        0.221,        0.000,
     275.617,        0.265,        0.000,
     276.161,        0.544,        2.000,
     276.822,        0.662,        0.000,
     276.875,        0.053,        0.000,
     277.336,        0.461,        2.000,
     277.856,        0.520,        2.000,
     278.400,        0.543,        2.000,
     278.916,        0.517,        2.000,
     278.997,        0.081,        0.000,
     279.434,        0.437,        2.000,
     279.945,        0.511,        2.000,
     282.455,        2.510,        0.000,
     282.969,        0.514,        2.000,
     283.179,        0.210,        0.000,
     283.651,        0.472,        2.000,
     284.269,        0.618,        0.000,
     284.685,        0.415,        0.000,
     285.320,        0.635,        2.000,
     285.748,        0.428,        2.000,
     286.236,        0.488,        2.000,
     287.248,        1.012,        3.000,
     287.445,        0.197,        0.000,
     287.848,        0.403,        2.000,
     288.343,        0.495,        2.000,
     288.855,        0.512,        2.000,
     289.365,        0.510,        2.000,
     289.771,        0.405,        2.000,
     289.973,        0.202,        0.000,
     290.769,        0.796,        0.000,
     290.996,        0.227,        0.000,
     291.428,        0.432,        2.000,
     291.949,        0.522,        2.000,
     292.469,        0.519,        2.000,
     292.825,        0.356,        0.000,
     293.364,        0.539,        2.000,
     293.866,        0.503,        2.000,
     294.148,        0.282,        0.000,
     294.548,        0.400,        2.000,
     295.459,        0.912,        3.000,
     295.713,        0.254,        0.000,
     295.947,        0.234,        0.000,
     297.022,        1.075,        3.000,
     297.558,        0.535,        2.000,
     298.097,        0.539,        2.000,
     298.285,        0.188,        0.000,
     298.850,        0.565,        2.000,
     299.225,        0.375,        2.000,
     299.813,        0.588,        2.000,
     300.366,        0.553,        2.000,
     300.919,        0.553,        2.000,
     301.902,        0.983,        3.000,
     302.401,        0.500,        2.000,
     302.958,        0.557,        2.000,
     303.327,        0.368,        0.000,
     303.608,        0.281,        0.000,
     304.614,        1.007,        3.000,
     304.914,        0.300,        0.000,
     305.320,        0.406,        2.000,
     305.462,        0.141,        0.000,
     305.663,        0.201,        0.000,
     306.181,        0.519,        2.000,
     306.410,        0.229,        0.000,
     306.728,        0.318,        0.000,
     307.203,        0.475,        2.000,
     307.712,        0.509,        2.000,
     308.362,        0.650,        0.000,
     308.758,        0.396,        2.000,
     308.960,        0.202,        0.000,
     309.440,        0.479,        2.000,
     309.981,        0.541,        2.000,
     310.952,        0.972,        3.000,
     311.701,        0.748,        0.000,
     312.029,        0.329,        0.000,
     312.607,        0.578,        2.000,
     313.141,        0.533,        2.000,
     314.174,        1.033,        3.000,
     314.681,        0.507,        2.000,
     314.955,        0.273,        0.000,
     315.920,        0.965,        3.000,
     316.262,        0.342,        0.000,
     316.752,        0.491,        2.000,
     317.041,        0.289,        0.000,
     317.386,        0.345,        0.000,
     318.172,        0.786,        0.000,
     319.426,        1.254,        0.000,
     320.463,        1.037,        0.000,
     320.849,        0.386,        2.000,
     321.967,        1.118,        0.000,
     322.180,        0.213,        0.000,
     322.592,        0.412,        2.000,
     323.080,        0.487,        2.000,
     323.450,        0.370,        2.000,
     324.462,        1.012,        0.000,
     324.985,        0.523,        2.000,
     325.291,        0.306,        0.000,
     325.778,        0.487,        2.000,
     326.211,        0.433,        2.000,
     326.691,        0.480,        2.000,
     327.225,        0.534,        2.000,
     327.838,        0.614,        2.000,
     329.081,        1.242,        0.000,
     329.372,        0.291,        0.000,
     329.891,        0.519,        2.000,
     330.093,        0.203,        0.000,
     330.398,        0.305,        0.000,
     331.239,        0.841,        0.000,
     331.533,        0.294,        0.000,
     332.546,        1.014,        3.000,
     333.040,        0.494,        2.000,
     333.570,        0.530,        2.000,
     334.147,        0.577,        2.000,
     334.637,        0.490,        2.000,
     335.223,        0.586,        2.000,
     335.727,        0.503,        2.000,
     335.998,        0.272,        0.000,
     336.553,        0.554,        2.000,
     336.769,        0.217,        0.000,
     337.290,        0.520,        2.000,
     338.363,        1.073,        3.000,
     338.549,        0.186,        0.000,
     339.085,        0.536,        2.000,
     339.609,        0.524,        2.000,
     340.661,        1.052,        3.000,
     341.755,        1.094,        0.000,
     342.927,        1.172,        0.000,
     343.277,        0.351,        0.000,
     343.889,        0.612,        2.000,
     344.387,        0.498,        2.000,
     344.578,        0.191,        0.000,
     344.955,        0.377,        0.000,
     346.447,        1.493,        0.000,
     346.755,        0.308,        0.000,
