      -0.040,          NaN,        0.000,
       0.062,        0.102,        0.000,
       0.302,        0.240,        0.000,
       0.603,        0.301,        1.000,
       1.483,        0.880,        0.000,
       2.037,        0.554,        0.000,
       2.265,        0.228,        0.000,
       3.144,        0.879,        0.000,
       4.033,        0.889,        0.000,
       4.912,        0.879,        0.000,
       5.276,        0.364,        2.000,
       5.736,        0.460,        2.000,
       6.630,        0.894,        3.000,
       7.436,        0.806,        1.000,
       8.302,        0.866,        3.000,
       9.104,        0.802,        1.000,
       9.997,        0.893,        3.000,
      10.994,        0.997,        1.000,
      11.932,        0.938,        1.000,
      12.843,        0.910,        1.000,
      13.640,        0.797,        1.000,
      13.877,        0.236,        0.000,
      14.481,        0.604,        1.000,
      15.255,        0.774,        1.000,
      16.045,        0.790,        2.000,
      16.825,        0.781,        1.000,
      17.086,        0.261,        0.000,
      17.667,        0.581,        1.000,
      18.552,        0.885,        2.000,
      18.617,        0.065,        0.000,
      19.299,        0.682,        1.000,
      20.089,        0.790,        2.000,
      20.872,        0.783,        2.000,
      21.186,        0.314,        0.000,
      21.421,        0.235,        0.000,
      21.584,        0.163,        0.000,
      22.133,        0.549,        2.000,
      24.188,        2.055,        0.000,
      24.686,        0.497,        0.000,
      25.321,        0.635,        2.000,
      26.075,        0.755,        2.000,
      26.780,        0.704,        2.000,
      27.712,        0.933,        2.000,
      28.487,        0.774,        2.000,
      28.800,        0.313,        0.000,
      29.321,        0.522,        0.000,
      30.165,        0.844,        2.000,
      31.025,        0.860,        2.000,
      31.970,        0.945,        2.000,
      32.915,        0.945,        2.000,
      33.728,        0.813,        2.000,
      34.606,        0.878,        2.000,
      34.822,        0.216,        0.000,
      35.368,        0.545,        0.000,
      35.436,        0.069,        0.000,
      36.163,        0.727,        2.000,
      36.990,        0.827,        2.000,
      37.787,        0.797,        2.000,
      38.616,        0.829,        2.000,
      39.505,        0.889,        2.000,
      39.691,        0.187,        0.000,
      40.475,        0.783,        2.000,
      40.561,        0.086,        0.000,
      41.286,        0.725,        0.000,
      42.155,        0.869,        2.000,
      42.981,        0.826,        2.000,
      43.553,        0.572,        0.000,
      43.835,        0.282,        0.000,
      44.276,        0.441,        0.000,
      44.564,        0.288,        0.000,
      45.389,        0.826,        2.000,
      46.183,        0.794,        2.000,
      46.522,        0.338,        0.000,
      46.962,        0.441,        0.000,
      47.748,        0.785,        2.000,
      48.046,        0.299,        0.000,
      48.599,        0.553,        0.000,
      49.012,        0.414,        0.000,
      49.513,        0.501,        0.000,
      50.346,        0.833,        2.000,
      51.264,        0.918,        2.000,
      52.056,        0.792,        2.000,
      52.524,        0.468,        0.000,
      52.797,        0.273,        0.000,
      53.402,        0.605,        0.000,
      53.557,        0.155,        0.000,
      54.043,        0.486,        0.000,
      55.343,        1.300,        0.000,
      55.984,        0.641,        2.000,
      56.459,        0.475,        0.000,
      56.732,        0.273,        0.000,
      57.094,        0.362,        1.000,
      57.717,        0.623,        2.000,
      57.986,        0.269,        0.000,
      58.200,        0.215,        0.000,
      58.666,        0.466,        2.000,
      59.015,        0.349,        0.000,
      59.406,        0.390,        2.000,
      60.113,        0.707,        3.000,
      60.709,        0.597,        2.000,
      61.197,        0.487,        2.000,
      61.443,        0.246,        0.000,
      62.166,        0.723,        3.000,
      62.879,        0.713,        3.000,
      63.174,        0.295,        0.000,
      63.682,        0.508,        2.000,
      64.397,        0.715,        3.000,
      64.658,        0.261,        0.000,
      65.035,        0.377,        2.000,
      65.249,        0.215,        0.000,
      65.853,        0.604,        0.000,
      66.533,        0.680,        3.000,
      67.610,        1.077,        0.000,
      67.806,        0.196,        0.000,
      67.984,        0.179,        0.000,
      68.500,        0.515,        2.000,
      69.077,        0.578,        0.000,
      69.518,        0.441,        2.000,
      69.821,        0.303,        0.000,
      69.894,        0.073,        0.000,
      70.821,        0.927,        3.000,
      71.044,        0.223,        0.000,
      71.827,        0.783,        0.000,
      72.502,        0.675,        0.000,
      73.071,        0.569,        2.000,
      73.348,        0.277,        0.000,
      73.570,        0.222,        0.000,
      74.075,        0.506,        2.000,
      74.586,        0.510,        2.000,
      74.830,        0.244,        0.000,
      75.066,        0.236,        0.000,
      75.317,        0.251,        0.000,
      75.538,        0.221,        0.000,
      75.781,        0.243,        0.000,
      76.253,        0.472,        2.000,
      76.732,        0.479,        2.000,
      76.951,        0.218,        0.000,
      77.194,        0.244,        0.000,
      77.673,        0.478,        2.000,
      78.134,        0.461,        2.000,
      78.614,        0.480,        2.000,
      79.076,        0.463,        2.000,
      79.304,        0.227,        0.000,
      79.548,        0.244,        0.000,
      80.011,        0.463,        2.000,
      80.482,        0.471,        2.000,
      80.960,        0.478,        2.000,
      81.428,        0.468,        2.000,
      81.658,        0.231,        0.000,
      81.895,        0.237,        0.000,
      82.135,        0.240,        0.000,
      82.381,        0.246,        0.000,
      83.088,        0.707,        0.000,
      83.573,        0.486,        2.000,
      83.979,        0.406,        2.000,
      84.211,        0.232,        0.000,
      84.487,        0.276,        0.000,
      84.741,        0.254,        0.000,
      85.209,        0.468,        2.000,
      85.435,        0.226,        0.000,
      85.670,        0.235,        0.000,
      85.877,        0.207,        0.000,
      86.137,        0.260,        0.000,
      86.347,        0.210,        0.000,
      86.602,        0.255,        0.000,
      86.831,        0.230,        0.000,
      87.298,        0.467,        2.000,
      87.728,        0.430,        2.000,
      88.195,        0.467,        2.000,
      88.632,        0.437,        2.000,
      88.941,        0.309,        0.000,
      89.404,        0.463,        2.000,
      90.076,        0.672,        0.000,
      90.336,        0.261,        0.000,
      90.588,        0.251,        0.000,
      91.058,        0.471,        2.000,
      91.501,        0.443,        2.000,
      91.746,        0.245,        0.000,
      91.967,        0.221,        0.000,
      92.397,        0.430,        2.000,
      92.847,        0.450,        2.000,
      93.135,        0.289,        0.000,
      93.607,        0.472,        2.000,
      94.077,        0.469,        2.000,
      95.005,        0.928,        3.000,
      95.946,        0.941,        3.000,
      96.430,        0.484,        2.000,
      97.082,        0.653,        0.000,
      97.471,        0.388,        2.000,
      97.847,        0.377,        2.000,
      98.990,        1.143,        0.000,
      99.362,        0.371,        2.000,
      99.734,        0.372,        2.000,
     100.445,        0.711,        3.000,
     100.795,        0.350,        2.000,
     101.194,        0.400,        2.000,
     101.961,        0.767,        3.000,
     102.319,        0.358,        2.000,
     102.678,        0.359,        2.000,
     103.403,        0.725,        3.000,
     103.761,        0.358,        2.000,
     104.105,        0.344,        2.000,
     104.753,        0.648,        0.000,
     105.154,        0.401,        2.000,
     105.593,        0.438,        2.000,
     106.569,        0.976,        0.000,
     106.987,        0.419,        2.000,
     107.332,        0.344,        2.000,
     107.996,        0.664,        3.000,
     108.350,        0.355,        2.000,
     109.108,        0.758,        3.000,
     109.462,        0.354,        2.000,
     110.124,        0.662,        3.000,
     110.470,        0.345,        2.000,
     110.830,        0.360,        2.000,
     111.209,        0.379,        2.000,
     111.813,        0.604,        0.000,
     112.291,        0.478,        0.000,
     112.589,        0.298,        2.000,
     112.951,        0.362,        2.000,
     113.300,        0.348,        2.000,
     113.674,        0.374,        2.000,
     114.319,        0.645,        3.000,
     114.713,        0.393,        2.000,
     115.423,        0.710,        3.000,
     115.725,        0.302,        2.000,
     116.097,        0.373,        2.000,
     116.471,        0.374,        2.000,
     116.825,        0.354,        2.000,
     117.196,        0.371,        2.000,
     117.911,        0.715,        3.000,
     118.216,        0.304,        2.000,
     118.618,        0.403,        2.000,
     118.936,        0.318,        2.000,
     119.312,        0.376,        2.000,
     119.983,        0.671,        3.000,
     120.340,        0.357,        2.000,
     120.691,        0.352,        2.000,
     121.064,        0.373,        2.000,
     121.429,        0.365,        2.000,
     121.776,        0.348,        2.000,
     122.126,        0.350,        2.000,
     122.523,        0.396,        2.000,
     122.898,        0.376,        2.000,
     123.211,        0.312,        2.000,
     123.574,        0.363,        2.000,
     124.104,        0.529,        0.000,
     124.611,        0.507,        0.000,
     125.129,        0.518,        0.000,
     125.657,        0.528,        0.000,
     126.705,        1.048,        0.000,
     127.075,        0.370,        2.000,
     127.746,        0.670,        3.000,
     128.152,        0.406,        2.000,
     128.515,        0.363,        2.000,
     128.809,        0.294,        2.000,
     129.195,        0.386,        2.000,
     129.532,        0.337,        2.000,
     130.240,        0.708,        3.000,
     130.566,        0.327,        2.000,
     131.313,        0.747,        3.000,
     131.620,        0.307,        2.000,
     132.006,        0.386,        2.000,
     132.353,        0.348,        2.000,
     132.724,        0.371,        2.000,
     133.398,        0.674,        3.000,
     133.769,        0.371,        2.000,
     134.169,        0.400,        2.000,
     134.447,        0.278,        2.000,
     134.813,        0.366,        2.000,
     135.194,        0.381,        2.000,
     135.490,        0.296,        2.000,
     135.881,        0.392,        2.000,
     136.236,        0.355,        2.000,
     136.562,        0.326,        2.000,
     136.913,        0.351,        2.000,
     137.249,        0.336,        2.000,
     137.609,        0.360,        2.000,
     137.987,        0.379,        2.000,
     138.366,        0.379,        2.000,
     138.669,        0.303,        1.000,
     138.943,        0.274,        1.000,
     139.384,        0.441,        1.000,
     139.734,        0.350,        1.000,
     140.117,        0.383,        1.000,
     140.438,        0.321,        1.000,
     140.772,        0.334,        1.000,
     141.157,        0.384,        1.000,
     141.813,        0.657,        3.000,
     142.187,        0.374,        2.000,
     142.843,        0.656,        3.000,
     143.216,        0.373,        2.000,
     143.881,        0.664,        3.000,
     144.241,        0.360,        2.000,
     144.918,        0.677,        3.000,
     145.293,        0.375,        2.000,
     145.639,        0.346,        2.000,
     145.962,        0.322,        2.000,
     146.316,        0.354,        2.000,
     146.678,        0.362,        2.000,
     147.009,        0.332,        2.000,
     147.361,        0.351,        2.000,
     147.718,        0.358,        2.000,
     148.422,        0.703,        3.000,
     148.769,        0.347,        2.000,
     149.454,        0.685,        3.000,
     149.805,        0.351,        2.000,
     150.131,        0.327,        2.000,
     150.462,        0.331,        2.000,
     150.791,        0.329,        2.000,
     151.180,        0.389,        2.000,
     151.887,        0.708,        3.000,
     152.221,        0.334,        2.000,
     152.773,        0.552,        0.000,
     152.912,        0.140,        0.000,
     153.259,        0.347,        2.000,
     153.581,        0.322,        2.000,
     153.947,        0.365,        2.000,
     154.288,        0.342,        2.000,
     154.630,        0.341,        2.000,
     154.980,        0.351,        2.000,
     155.316,        0.335,        2.000,
     155.671,        0.355,        2.000,
     156.014,        0.343,        2.000,
     156.334,        0.319,        2.000,
     156.698,        0.365,        2.000,
     157.018,        0.319,        2.000,
     157.369,        0.352,        2.000,
     157.730,        0.360,        2.000,
     158.059,        0.329,        1.000,
     158.433,        0.375,        1.000,
     158.783,        0.349,        1.000,
     159.116,        0.334,        1.000,
     159.453,        0.336,        1.000,
     160.152,        0.699,        3.000,
     160.523,        0.372,        2.000,
     161.740,        1.217,        0.000,
     162.242,        0.502,        0.000,
     162.568,        0.326,        2.000,
     162.959,        0.391,        2.000,
     163.295,        0.336,        2.000,
     163.640,        0.345,        2.000,
     164.697,        1.057,        0.000,
     165.058,        0.361,        2.000,
     165.371,        0.313,        2.000,
     165.740,        0.369,        2.000,
     166.088,        0.348,        2.000,
     166.425,        0.338,        2.000,
     166.833,        0.408,        2.000,
     167.497,        0.664,        3.000,
     168.058,        0.561,        0.000,
     168.571,        0.513,        0.000,
     168.906,        0.335,        2.000,
     169.605,        0.699,        3.000,
     169.949,        0.343,        2.000,
     170.277,        0.329,        2.000,
     170.649,        0.372,        2.000,
     171.008,        0.359,        2.000,
     171.348,        0.340,        2.000,
     171.694,        0.346,        2.000,
     172.041,        0.347,        2.000,
     172.397,        0.355,        2.000,
     172.733,        0.337,        2.000,
     173.206,        0.472,        0.000,
     173.459,        0.253,        0.000,
     173.790,        0.331,        2.000,
     174.179,        0.389,        2.000,
     174.867,        0.688,        3.000,
     175.215,        0.348,        2.000,
     175.576,        0.361,        2.000,
     176.312,        0.736,        3.000,
     176.703,        0.391,        2.000,
     177.028,        0.325,        2.000,
     177.754,        0.726,        3.000,
     178.467,        0.713,        3.000,
     178.829,        0.362,        2.000,
     179.038,        0.209,        0.000,
     179.553,        0.515,        0.000,
     180.247,        0.694,        3.000,
     180.626,        0.379,        2.000,
     181.371,        0.745,        3.000,
     182.088,        0.717,        3.000,
     182.440,        0.352,        2.000,
     182.791,        0.351,        2.000,
     183.160,        0.369,        2.000,
     183.860,        0.700,        3.000,
     184.265,        0.405,        2.000,
     184.995,        0.731,        3.000,
     186.130,        1.134,        0.000,
     187.293,        1.164,        0.000,
     187.902,        0.609,        0.000,
     188.462,        0.560,        0.000,
     189.148,        0.685,        0.000,
     189.719,        0.572,        1.000,
     190.288,        0.568,        1.000,
     190.673,        0.385,        0.000,
     191.035,        0.362,        0.000,
     191.409,        0.374,        0.000,
     191.772,        0.363,        0.000,
     192.146,        0.375,        0.000,
     193.273,        1.127,        0.000,
     193.691,        0.418,        0.000,
     194.061,        0.369,        0.000,
     194.454,        0.393,        0.000,
     194.858,        0.404,        1.000,
     195.240,        0.382,        2.000,
     195.638,        0.398,        2.000,
     196.015,        0.377,        2.000,
     196.400,        0.385,        2.000,
     196.797,        0.398,        2.000,
     197.189,        0.392,        2.000,
     197.585,        0.397,        2.000,
     197.964,        0.379,        2.000,
     198.354,        0.390,        2.000,
     198.732,        0.378,        2.000,
     199.112,        0.380,        1.000,
     199.507,        0.396,        2.000,
     199.891,        0.383,        2.000,
     200.268,        0.377,        2.000,
     200.658,        0.390,        2.000,
     201.028,        0.370,        0.000,
     201.811,        0.783,        3.000,
     202.193,        0.382,        2.000,
     202.579,        0.386,        2.000,
     202.965,        0.386,        2.000,
     203.356,        0.391,        2.000,
     203.763,        0.407,        2.000,
     204.154,        0.391,        2.000,
     204.542,        0.388,        2.000,
     204.923,        0.381,        2.000,
     205.315,        0.393,        2.000,
     205.714,        0.399,        2.000,
     206.114,        0.400,        2.000,
     206.511,        0.397,        2.000,
     206.880,        0.369,        0.000,
     207.283,        0.403,        2.000,
     207.683,        0.400,        2.000,
     208.077,        0.394,        2.000,
     208.481,        0.404,        2.000,
     208.869,        0.388,        2.000,
     209.273,        0.404,        2.000,
     209.675,        0.402,        2.000,
     210.086,        0.411,        2.000,
     210.495,        0.409,        2.000,
     210.892,        0.397,        2.000,
     211.308,        0.416,        2.000,
     211.697,        0.390,        2.000,
     212.498,        0.801,        3.000,
     212.883,        0.385,        2.000,
     213.277,        0.394,        2.000,
     213.662,        0.385,        2.000,
     214.056,        0.394,        2.000,
     214.463,        0.407,        2.000,
     214.874,        0.411,        2.000,
     215.280,        0.405,        2.000,
     215.675,        0.395,        2.000,
     216.083,        0.408,        2.000,
     216.494,        0.411,        2.000,
     216.895,        0.401,        2.000,
     217.292,        0.397,        2.000,
     217.703,        0.411,        2.000,
     218.118,        0.414,        2.000,
     218.545,        0.428,        0.000,
     218.972,        0.427,        0.000,
     219.404,        0.432,        0.000,
     219.836,        0.432,        0.000,
     220.262,        0.426,        0.000,
     220.694,        0.432,        0.000,
     221.128,        0.434,        0.000,
     221.544,        0.416,        2.000,
     221.973,        0.429,        0.000,
     222.408,        0.435,        0.000,
     222.823,        0.415,        2.000,
     223.226,        0.403,        0.000,
     223.655,        0.429,        2.000,
     224.055,        0.401,        0.000,
     224.478,        0.422,        2.000,
     224.890,        0.412,        2.000,
     225.308,        0.418,        2.000,
     225.731,        0.424,        2.000,
     226.150,        0.418,        2.000,
     226.557,        0.407,        2.000,
     226.976,        0.419,        2.000,
     227.401,        0.425,        2.000,
     227.865,        0.463,        0.000,
     228.249,        0.385,        0.000,
     228.664,        0.415,        2.000,
     229.095,        0.431,        2.000,
     229.508,        0.413,        2.000,
     229.918,        0.410,        2.000,
     230.335,        0.417,        2.000,
     231.284,        0.949,        0.000,
     232.039,        0.755,        0.000,
     232.926,        0.887,        0.000,
     233.354,        0.428,        2.000,
     233.769,        0.416,        2.000,
     234.202,        0.433,        2.000,
     234.634,        0.432,        2.000,
     235.088,        0.453,        2.000,
     235.505,        0.418,        2.000,
     235.931,        0.425,        2.000,
     236.353,        0.423,        2.000,
     236.798,        0.445,        2.000,
     237.203,        0.404,        2.000,
     237.633,        0.431,        2.000,
     238.054,        0.420,        2.000,
     238.405,        0.351,        0.000,
     238.918,        0.513,        0.000,
     239.344,        0.426,        2.000,
     239.760,        0.416,        2.000,
     240.173,        0.413,        2.000,
     240.585,        0.413,        2.000,
     240.992,        0.407,        2.000,
     241.394,        0.402,        2.000,
     241.802,        0.408,        2.000,
     242.219,        0.417,        2.000,
     242.655,        0.436,        2.000,
     243.072,        0.416,        2.000,
     243.495,        0.423,        2.000,
     243.923,        0.428,        1.000,
     244.353,        0.431,        2.000,
     244.761,        0.407,        2.000,
     245.204,        0.443,        0.000,
     245.637,        0.433,        2.000,
     246.068,        0.431,        2.000,
     246.523,        0.456,        0.000,
     246.981,        0.458,        0.000,
     247.398,        0.416,        2.000,
     247.860,        0.462,        0.000,
     248.316,        0.457,        0.000,
     248.783,        0.467,        0.000,
     249.351,        0.568,        0.000,
     249.485,        0.134,        0.000,
     250.134,        0.649,        0.000,
     250.397,        0.263,        0.000,
     250.595,        0.198,        0.000,
     250.891,        0.296,        0.000,
     251.764,        0.873,        0.000,
     252.075,        0.311,        2.000,
     252.732,        0.657,        0.000,
     253.317,        0.585,        0.000,
     253.784,        0.467,        1.000,
     254.430,        0.647,        3.000,
     255.525,        1.095,        0.000,
     256.030,        0.505,        0.000,
     256.569,        0.539,        0.000,
     257.063,        0.494,        0.000,
     257.451,        0.388,        2.000,
     257.951,        0.500,        2.000,
     258.606,        0.655,        1.000,
     258.899,        0.292,        0.000,
     259.384,        0.485,        2.000,
     259.773,        0.388,        2.000,
     260.249,        0.477,        2.000,
     260.656,        0.407,        2.000,
     261.045,        0.389,        2.000,
     261.561,        0.516,        2.000,
     261.922,        0.360,        2.000,
     262.200,        0.278,        0.000,
     263.225,        1.026,        3.000,
     264.049,        0.824,        3.000,
     264.307,        0.258,        0.000,
     264.992,        0.685,        0.000,
     265.339,        0.347,        2.000,
     265.803,        0.464,        2.000,
     266.360,        0.557,        2.000,
     266.879,        0.519,        2.000,
     267.131,        0.252,        0.000,
     267.395,        0.264,        0.000,
     267.914,        0.519,        2.000,
     268.407,        0.493,        2.000,
     268.956,        0.549,        2.000,
     269.468,        0.512,        2.000,
     270.009,        0.541,        2.000,
     270.454,        0.445,        2.000,
     270.938,        0.484,        2.000,
     271.555,        0.617,        2.000,
     272.049,        0.494,        2.000,
     272.574,        0.525,        1.000,
     273.082,        0.509,        1.000,
     273.625,        0.543,        1.000,
     274.124,        0.498,        1.000,
     274.541,        0.418,        1.000,
     275.166,        0.625,        1.000,
     275.595,        0.428,        1.000,
     276.203,        0.608,        1.000,
     276.749,        0.546,        1.000,
     277.360,        0.611,        1.000,
     277.798,        0.438,        1.000,
     278.304,        0.506,        1.000,
     278.826,        0.522,        1.000,
     279.345,        0.519,        1.000,
     279.941,        0.595,        1.000,
     280.421,        0.480,        1.000,
     280.676,        0.255,        0.000,
     281.368,        0.692,        2.000,
     281.965,        0.597,        2.000,
     283.017,        1.052,        3.000,
     283.417,        0.400,        0.000,
     284.070,        0.653,        2.000,
     284.604,        0.533,        2.000,
     285.045,        0.441,        2.000,
     286.282,        1.237,        3.000,
     287.471,        1.188,        3.000,
     287.888,        0.417,        2.000,
     288.278,        0.390,        0.000,
     288.770,        0.492,        2.000,
     289.484,        0.715,        0.000,
     289.944,        0.459,        2.000,
     290.290,        0.346,        0.000,
     290.733,        0.443,        2.000,
     291.863,        1.131,        3.000,
     292.303,        0.439,        2.000,
     293.413,        1.111,        3.000,
     293.887,        0.474,        2.000,
     294.467,        0.580,        2.000,
     294.995,        0.529,        2.000,
     295.445,        0.450,        2.000,
     296.025,        0.580,        2.000,
     296.554,        0.529,        2.000,
     296.995,        0.441,        2.000,
     297.611,        0.616,        2.000,
     298.116,        0.505,        2.000,
     298.867,        0.751,        0.000,
     299.225,        0.358,        0.000,
     300.008,        0.782,        0.000,
     300.414,        0.407,        2.000,
     300.976,        0.562,        2.000,
     301.912,        0.936,        3.000,
     302.339,        0.427,        2.000,
     303.058,        0.720,        0.000,
     303.680,        0.622,        0.000,
     304.622,        0.942,        3.000,
     305.064,        0.442,        2.000,
     305.433,        0.370,        2.000,
     305.835,        0.402,        2.000,
     306.236,        0.401,        2.000,
     306.633,        0.397,        2.000,
     307.015,        0.382,        2.000,
     307.435,        0.420,        2.000,
     307.863,        0.428,        2.000,
     308.273,        0.410,        2.000,
     308.689,        0.416,        2.000,
     309.214,        0.525,        2.000,
     309.487,        0.273,        0.000,
     309.952,        0.465,        2.000,
     310.710,        0.758,        3.000,
     311.114,        0.405,        2.000,
     311.514,        0.399,        2.000,
     311.993,        0.479,        2.000,
     312.693,        0.700,        0.000,
     313.155,        0.462,        2.000,
     313.605,        0.450,        2.000,
     314.135,        0.530,        2.000,
     314.686,        0.551,        2.000,
     315.099,        0.413,        2.000,
     315.517,        0.417,        2.000,
     316.246,        0.729,        0.000,
     316.662,        0.416,        2.000,
     317.051,        0.390,        2.000,
     317.423,        0.372,        2.000,
     317.812,        0.389,        2.000,
     318.171,        0.359,        2.000,
     318.572,        0.401,        2.000,
     318.965,        0.393,        2.000,
     319.325,        0.360,        2.000,
     320.133,        0.808,        3.000,
     320.445,        0.312,        2.000,
     320.816,        0.371,        2.000,
     321.208,        0.391,        2.000,
     321.979,        0.772,        3.000,
     322.705,        0.726,        3.000,
     323.019,        0.314,        2.000,
     323.489,        0.470,        2.000,
     324.213,        0.723,        3.000,
     324.556,        0.344,        2.000,
     324.953,        0.396,        2.000,
     325.312,        0.360,        2.000,
     325.680,        0.367,        2.000,
     326.065,        0.385,        2.000,
     326.423,        0.357,        2.000,
     326.808,        0.385,        2.000,
     327.165,        0.357,        2.000,
     327.526,        0.361,        2.000,
     328.282,        0.756,        3.000,
     328.650,        0.368,        2.000,
     329.028,        0.378,        2.000,
     329.374,        0.346,        2.000,
     329.780,        0.405,        2.000,
     330.129,        0.349,        2.000,
     330.887,        0.758,        3.000,
     331.213,        0.326,        2.000,
     331.971,        0.758,        3.000,
     332.321,        0.350,        2.000,
     332.711,        0.390,        2.000,
     333.061,        0.350,        2.000,
     333.431,        0.370,        2.000,
     333.789,        0.357,        2.000,
     334.130,        0.341,        2.000,
     335.240,        1.110,        0.000,
     335.634,        0.394,        2.000,
     335.981,        0.348,        2.000,
     336.695,        0.713,        3.000,
     337.054,        0.359,        2.000,
     337.475,        0.421,        2.000,
     338.108,        0.633,        0.000,
     338.509,        0.400,        2.000,
     338.901,        0.393,        2.000,
     339.256,        0.355,        2.000,
     339.590,        0.334,        2.000,
     339.962,        0.372,        2.000,
     340.378,        0.415,        2.000,
     340.661,        0.283,        0.000,
     341.042,        0.382,        2.000,
     341.398,        0.356,        2.000,
     341.748,        0.349,        2.000,
     342.122,        0.375,        2.000,
     342.450,        0.327,        2.000,
     342.818,        0.368,        2.000,
     343.220,        0.402,        2.000,
     343.529,        0.308,        0.000,
     343.876,        0.348,        2.000,
     344.255,        0.379,        2.000,
     344.590,        0.335,        2.000,
     345.681,        1.091,        0.000,
     346.022,        0.342,        2.000,
     346.382,        0.359,        2.000,
     346.752,        0.371,        2.000,
