      -0.049,          NaN,        0.000,
       0.039,        0.089,        0.000,
       0.598,        0.558,        0.000,
       1.424,        0.826,        0.000,
       2.280,        0.856,        1.000,
       3.119,        0.839,        1.000,
       4.039,        0.919,        1.000,
       4.854,        0.815,        1.000,
       5.758,        0.904,        1.000,
       6.593,        0.835,        1.000,
       7.409,        0.816,        1.000,
       8.257,        0.848,        1.000,
       9.081,        0.824,        1.000,
       9.988,        0.907,        1.000,
      10.952,        0.964,        1.000,
      11.868,        0.916,        1.000,
      12.779,        0.911,        1.000,
      13.626,        0.848,        1.000,
      14.421,        0.794,        1.000,
      15.243,        0.822,        1.000,
      16.057,        0.814,        1.000,
      16.808,        0.751,        1.000,
      17.637,        0.829,        1.000,
      18.488,        0.851,        2.000,
      19.288,        0.801,        2.000,
      20.092,        0.803,        2.000,
      20.880,        0.788,        2.000,
      21.414,        0.535,        0.000,
      21.658,        0.244,        0.000,
      23.256,        1.598,        3.000,
      24.631,        1.375,        0.000,
      25.338,        0.707,        2.000,
      25.994,        0.656,        2.000,
      26.696,        0.702,        2.000,
      27.636,        0.940,        2.000,
      28.471,        0.836,        2.000,
      29.339,        0.867,        2.000,
      30.138,        0.799,        2.000,
      31.030,        0.892,        1.000,
      31.870,        0.839,        2.000,
      32.759,        0.889,        1.000,
      33.663,        0.904,        1.000,
      34.530,        0.868,        2.000,
      35.347,        0.816,        1.000,
      36.174,        0.828,        1.000,
      36.945,        0.770,        1.000,
      37.745,        0.800,        1.000,
      38.554,        0.809,        2.000,
      39.404,        0.850,        1.000,
      40.334,        0.930,        0.000,
      41.162,        0.828,        2.000,
      42.042,        0.881,        2.000,
      42.890,        0.847,        2.000,
      43.723,        0.833,        2.000,
      44.548,        0.825,        2.000,
      45.332,        0.784,        0.000,
      46.101,        0.769,        0.000,
      46.911,        0.810,        2.000,
      47.720,        0.810,        2.000,
      48.583,        0.863,        0.000,
      49.490,        0.906,        0.000,
      50.368,        0.878,        2.000,
      51.202,        0.834,        2.000,
      52.007,        0.805,        2.000,
      52.865,        0.858,        2.000,
      53.394,        0.529,        0.000,
      54.075,        0.682,        2.000,
      54.687,        0.611,        2.000,
      55.246,        0.559,        0.000,
      55.817,        0.571,        2.000,
      56.431,        0.614,        2.000,
      57.048,        0.617,        2.000,
      57.724,        0.676,        2.000,
      58.416,        0.691,        2.000,
      59.201,        0.786,        0.000,
      59.956,        0.755,        2.000,
      65.070,        5.113,        0.000,
      65.741,        0.672,        1.000,
      66.422,        0.681,        1.000,
      67.122,        0.699,        1.000,
      67.750,        0.628,        1.000,
      68.424,        0.674,        1.000,
      69.190,        0.766,        1.000,
      75.813,        6.623,        0.000,
      76.256,        0.442,        0.000,
      76.529,        0.273,        0.000,
      76.742,        0.213,        0.000,
      77.225,        0.484,        0.000,
      77.599,        0.374,        1.000,
      77.891,        0.292,        1.000,
      78.095,        0.205,        0.000,
      78.161,        0.065,        0.000,
      78.412,        0.251,        2.000,
      78.616,        0.204,        0.000,
      78.878,        0.262,        2.000,
      79.087,        0.209,        0.000,
      79.574,        0.487,        3.000,
      80.048,        0.474,        3.000,
      80.502,        0.454,        0.000,
      80.762,        0.260,        2.000,
      80.971,        0.209,        0.000,
      81.229,        0.257,        2.000,
      81.609,        0.381,        0.000,
      81.838,        0.229,        0.000,
      82.793,        0.955,        0.000,
      83.240,        0.447,        0.000,
      83.772,        0.532,        3.000,
      84.102,        0.330,        2.000,
      84.564,        0.462,        3.000,
      85.016,        0.451,        0.000,
      85.473,        0.457,        0.000,
      85.929,        0.455,        0.000,
      86.392,        0.463,        1.000,
      86.861,        0.470,        1.000,
      87.330,        0.469,        1.000,
      87.807,        0.477,        1.000,
      88.265,        0.457,        1.000,
      88.506,        0.241,        0.000,
      88.751,        0.245,        0.000,
      88.966,        0.215,        0.000,
      89.211,        0.245,        0.000,
      89.428,        0.217,        0.000,
      89.690,        0.263,        0.000,
      90.158,        0.467,        2.000,
      90.698,        0.540,        2.000,
      91.079,        0.381,        2.000,
      91.540,        0.462,        2.000,
      92.006,        0.466,        2.000,
      92.340,        0.334,        0.000,
      92.722,        0.382,        2.000,
      92.948,        0.226,        0.000,
      93.157,        0.209,        0.000,
      93.531,        0.373,        2.000,
      93.879,        0.348,        2.000,
      94.344,        0.465,        2.000,
      94.810,        0.466,        2.000,
      95.150,        0.340,        0.000,
      95.525,        0.376,        2.000,
      95.752,        0.227,        0.000,
      96.329,        0.577,        0.000,
      96.708,        0.379,        2.000,
      97.172,        0.464,        2.000,
      97.647,        0.476,        2.000,
      97.876,        0.229,        0.000,
      98.221,        0.345,        2.000,
      98.588,        0.367,        2.000,
      99.064,        0.476,        2.000,
      99.315,        0.251,        0.000,
      99.537,        0.222,        0.000,
      99.938,        0.400,        2.000,
     100.105,        0.168,        0.000,
     100.480,        0.374,        2.000,
     100.835,        0.355,        2.000,
     101.190,        0.356,        2.000,
     101.547,        0.357,        2.000,
     101.911,        0.364,        2.000,
     102.272,        0.361,        2.000,
     102.637,        0.365,        2.000,
     102.980,        0.343,        2.000,
     103.348,        0.367,        2.000,
     103.718,        0.370,        2.000,
     104.073,        0.355,        2.000,
     104.407,        0.334,        1.000,
     104.788,        0.381,        1.000,
     105.132,        0.344,        1.000,
     105.763,        0.632,        0.000,
     106.271,        0.508,        0.000,
     106.548,        0.277,        0.000,
     106.907,        0.359,        2.000,
     107.270,        0.363,        2.000,
     107.971,        0.701,        3.000,
     108.378,        0.407,        2.000,
     108.758,        0.381,        2.000,
     109.392,        0.634,        0.000,
     109.760,        0.368,        2.000,
     110.473,        0.713,        3.000,
     110.850,        0.377,        2.000,
     111.160,        0.310,        2.000,
     111.523,        0.362,        2.000,
     111.861,        0.338,        2.000,
     112.245,        0.384,        2.000,
     112.596,        0.351,        2.000,
     112.934,        0.338,        2.000,
     113.325,        0.391,        2.000,
     113.986,        0.661,        3.000,
     114.349,        0.362,        2.000,
     114.734,        0.385,        2.000,
     115.067,        0.333,        2.000,
     115.411,        0.344,        2.000,
     115.755,        0.344,        2.000,
     116.126,        0.371,        2.000,
     116.471,        0.345,        2.000,
     116.858,        0.387,        2.000,
     117.172,        0.314,        2.000,
     117.508,        0.336,        2.000,
     117.869,        0.361,        2.000,
     118.240,        0.371,        2.000,
     118.625,        0.386,        2.000,
     118.947,        0.322,        2.000,
     119.348,        0.401,        0.000,
     119.650,        0.301,        0.000,
     119.997,        0.348,        2.000,
     120.365,        0.368,        2.000,
     120.696,        0.331,        2.000,
     121.398,        0.702,        3.000,
     121.754,        0.356,        2.000,
     122.078,        0.324,        2.000,
     122.493,        0.415,        2.000,
     122.719,        0.226,        0.000,
     122.837,        0.118,        0.000,
     123.521,        0.685,        3.000,
     123.882,        0.361,        2.000,
     124.572,        0.690,        3.000,
     124.934,        0.362,        2.000,
     125.339,        0.405,        2.000,
     125.643,        0.303,        2.000,
     125.971,        0.328,        2.000,
     126.368,        0.397,        2.000,
     126.696,        0.328,        2.000,
     127.103,        0.407,        2.000,
     127.423,        0.321,        2.000,
     127.744,        0.321,        2.000,
     128.150,        0.406,        2.000,
     128.466,        0.316,        2.000,
     128.801,        0.335,        2.000,
     129.188,        0.387,        2.000,
     129.513,        0.325,        2.000,
     130.216,        0.703,        3.000,
     130.606,        0.390,        2.000,
     130.962,        0.356,        2.000,
     131.300,        0.337,        2.000,
     131.631,        0.331,        2.000,
     132.012,        0.381,        2.000,
     132.347,        0.335,        2.000,
     132.755,        0.408,        2.000,
     133.067,        0.312,        2.000,
     133.400,        0.334,        2.000,
     133.795,        0.394,        2.000,
     134.121,        0.327,        2.000,
     134.442,        0.321,        2.000,
     134.835,        0.393,        2.000,
     135.164,        0.330,        2.000,
     135.506,        0.341,        1.000,
     135.872,        0.366,        1.000,
     136.205,        0.333,        1.000,
     136.546,        0.340,        1.000,
     137.369,        0.824,        0.000,
     137.618,        0.249,        0.000,
     138.016,        0.397,        2.000,
     138.337,        0.321,        2.000,
     138.665,        0.328,        2.000,
     139.085,        0.420,        2.000,
     139.394,        0.309,        2.000,
     139.716,        0.321,        2.000,
     140.070,        0.354,        2.000,
     140.437,        0.367,        2.000,
     140.767,        0.330,        2.000,
     141.100,        0.333,        2.000,
     141.476,        0.376,        2.000,
     141.807,        0.330,        2.000,
     142.148,        0.342,        2.000,
     142.530,        0.382,        2.000,
     142.838,        0.308,        1.000,
     143.247,        0.410,        1.000,
     143.565,        0.318,        1.000,
     143.883,        0.318,        1.000,
     144.210,        0.327,        1.000,
     144.598,        0.388,        1.000,
     144.925,        0.326,        1.000,
     145.320,        0.395,        1.000,
     145.627,        0.307,        1.000,
     145.960,        0.334,        1.000,
     146.358,        0.398,        1.000,
     146.680,        0.322,        1.000,
     147.009,        0.329,        1.000,
     147.381,        0.372,        1.000,
     147.706,        0.325,        1.000,
     148.054,        0.347,        1.000,
     148.416,        0.362,        1.000,
     148.756,        0.340,        1.000,
     149.093,        0.337,        1.000,
     149.449,        0.355,        1.000,
     149.786,        0.337,        1.000,
     150.137,        0.351,        1.000,
     150.840,        0.702,        3.000,
     151.160,        0.321,        2.000,
     151.513,        0.353,        2.000,
     151.888,        0.375,        2.000,
     152.221,        0.332,        2.000,
     152.561,        0.340,        2.000,
     152.923,        0.362,        2.000,
     153.254,        0.331,        2.000,
     153.598,        0.344,        2.000,
     154.261,        0.663,        3.000,
     154.670,        0.409,        2.000,
     154.973,        0.303,        2.000,
     155.307,        0.334,        2.000,
     155.650,        0.342,        2.000,
     155.997,        0.347,        2.000,
     156.352,        0.356,        2.000,
     156.691,        0.339,        2.000,
     157.014,        0.323,        2.000,
     157.419,        0.405,        2.000,
     157.738,        0.320,        2.000,
     158.063,        0.325,        2.000,
     158.409,        0.346,        2.000,
     158.785,        0.376,        2.000,
     159.130,        0.345,        2.000,
     159.820,        0.689,        3.000,
     160.151,        0.331,        2.000,
     160.487,        0.337,        2.000,
     160.874,        0.386,        2.000,
     161.209,        0.335,        2.000,
     161.558,        0.349,        2.000,
     161.903,        0.345,        2.000,
     162.246,        0.343,        2.000,
     162.576,        0.330,        2.000,
     162.985,        0.410,        2.000,
     163.298,        0.312,        2.000,
     163.638,        0.341,        2.000,
     164.003,        0.365,        2.000,
     164.351,        0.349,        2.000,
     164.689,        0.338,        2.000,
     165.040,        0.351,        2.000,
     165.375,        0.334,        2.000,
     165.765,        0.391,        0.000,
     166.100,        0.335,        2.000,
     166.436,        0.337,        2.000,
     166.785,        0.349,        2.000,
     167.157,        0.372,        2.000,
     167.492,        0.335,        2.000,
     167.847,        0.355,        2.000,
     168.209,        0.362,        2.000,
     168.540,        0.331,        2.000,
     168.892,        0.352,        2.000,
     169.269,        0.377,        0.000,
     169.612,        0.342,        2.000,
     169.953,        0.341,        2.000,
     170.285,        0.332,        2.000,
     170.643,        0.358,        2.000,
     171.011,        0.368,        2.000,
     171.354,        0.343,        2.000,
     171.689,        0.335,        2.000,
     172.056,        0.367,        2.000,
     172.407,        0.351,        2.000,
     172.725,        0.318,        0.000,
     173.116,        0.391,        0.000,
     173.484,        0.368,        2.000,
     173.792,        0.308,        0.000,
     174.150,        0.358,        2.000,
     174.535,        0.385,        2.000,
     174.868,        0.332,        2.000,
     175.514,        0.646,        0.000,
     175.949,        0.435,        2.000,
     176.320,        0.371,        2.000,
     176.657,        0.338,        2.000,
     177.009,        0.352,        2.000,
     177.725,        0.716,        3.000,
     178.096,        0.371,        2.000,
     178.439,        0.343,        2.000,
     178.814,        0.374,        2.000,
     179.526,        0.712,        3.000,
     179.894,        0.369,        2.000,
     180.631,        0.736,        3.000,
     181.010,        0.379,        2.000,
     181.324,        0.314,        2.000,
     181.704,        0.380,        2.000,
     182.441,        0.736,        3.000,
     182.784,        0.343,        2.000,
     183.133,        0.349,        2.000,
     183.494,        0.360,        2.000,
     184.272,        0.778,        3.000,
     184.976,        0.704,        3.000,
     185.363,        0.386,        2.000,
     185.749,        0.386,        2.000,
     186.113,        0.364,        2.000,
     186.518,        0.404,        2.000,
     186.884,        0.366,        2.000,
     187.261,        0.378,        2.000,
     187.649,        0.387,        2.000,
     188.030,        0.382,        2.000,
     188.407,        0.376,        2.000,
     188.786,        0.380,        2.000,
     189.144,        0.358,        2.000,
     189.537,        0.393,        2.000,
     189.912,        0.375,        2.000,
     190.292,        0.380,        1.000,
     190.697,        0.405,        1.000,
     191.025,        0.329,        1.000,
     191.394,        0.368,        1.000,
     191.771,        0.377,        1.000,
     192.125,        0.354,        1.000,
     192.514,        0.389,        1.000,
     193.259,        0.745,        3.000,
     193.670,        0.411,        2.000,
     194.058,        0.388,        2.000,
     194.832,        0.774,        3.000,
     195.228,        0.396,        2.000,
     195.625,        0.397,        2.000,
     196.006,        0.381,        2.000,
     196.393,        0.387,        2.000,
     196.781,        0.388,        2.000,
     197.180,        0.399,        2.000,
     197.573,        0.394,        2.000,
     197.955,        0.381,        2.000,
     198.339,        0.385,        2.000,
     198.722,        0.383,        2.000,
     199.109,        0.387,        2.000,
     199.501,        0.392,        2.000,
     199.885,        0.384,        1.000,
     200.263,        0.378,        1.000,
     200.640,        0.377,        1.000,
     201.024,        0.384,        1.000,
     201.414,        0.390,        1.000,
     201.803,        0.389,        1.000,
     202.185,        0.382,        1.000,
     202.564,        0.379,        1.000,
     202.957,        0.394,        1.000,
     203.349,        0.391,        1.000,
     203.744,        0.395,        1.000,
     204.143,        0.399,        1.000,
     204.532,        0.389,        1.000,
     204.921,        0.389,        1.000,
     205.314,        0.394,        1.000,
     205.713,        0.399,        1.000,
     206.109,        0.396,        1.000,
     206.497,        0.388,        1.000,
     206.889,        0.391,        1.000,
     207.278,        0.390,        1.000,
     207.670,        0.392,        1.000,
     208.076,        0.406,        1.000,
     208.474,        0.398,        1.000,
     208.865,        0.391,        1.000,
     209.266,        0.401,        1.000,
     209.670,        0.404,        1.000,
     210.082,        0.412,        1.000,
     210.500,        0.418,        1.000,
     210.892,        0.393,        1.000,
     211.294,        0.402,        1.000,
     211.702,        0.409,        1.000,
     212.094,        0.392,        1.000,
     212.497,        0.403,        1.000,
     212.888,        0.391,        1.000,
     213.276,        0.387,        1.000,
     213.663,        0.388,        1.000,
     214.057,        0.394,        1.000,
     214.461,        0.403,        1.000,
     214.871,        0.410,        1.000,
     215.273,        0.402,        1.000,
     215.675,        0.402,        1.000,
     216.081,        0.405,        1.000,
     216.489,        0.409,        1.000,
     216.892,        0.403,        1.000,
     217.292,        0.400,        1.000,
     217.700,        0.408,        1.000,
     218.114,        0.414,        1.000,
     218.540,        0.426,        1.000,
     218.976,        0.436,        1.000,
     219.401,        0.424,        1.000,
     219.821,        0.420,        1.000,
     220.254,        0.433,        1.000,
     220.690,        0.436,        1.000,
     221.124,        0.434,        1.000,
     221.547,        0.423,        1.000,
     221.971,        0.424,        1.000,
     222.399,        0.428,        1.000,
     222.822,        0.423,        1.000,
     223.236,        0.414,        1.000,
     223.647,        0.411,        1.000,
     224.054,        0.407,        1.000,
     224.471,        0.417,        1.000,
     224.889,        0.418,        1.000,
     225.306,        0.418,        1.000,
     225.722,        0.415,        1.000,
     226.139,        0.417,        1.000,
     226.551,        0.412,        1.000,
     226.967,        0.416,        1.000,
     227.398,        0.431,        1.000,
     227.818,        0.420,        1.000,
     228.233,        0.415,        1.000,
     228.650,        0.417,        1.000,
     229.081,        0.430,        1.000,
     229.498,        0.417,        1.000,
     229.907,        0.409,        1.000,
     230.322,        0.415,        1.000,
     230.745,        0.423,        1.000,
     231.169,        0.424,        1.000,
     231.582,        0.413,        1.000,
     232.032,        0.451,        1.000,
     232.465,        0.433,        1.000,
     232.905,        0.440,        1.000,
     233.334,        0.430,        1.000,
     233.761,        0.426,        1.000,
     234.188,        0.428,        1.000,
     234.632,        0.444,        1.000,
     235.069,        0.437,        1.000,
     235.493,        0.424,        1.000,
     235.918,        0.426,        1.000,
     236.353,        0.435,        1.000,
     236.784,        0.431,        1.000,
     237.184,        0.400,        1.000,
     237.608,        0.423,        1.000,
     238.046,        0.438,        1.000,
     238.497,        0.451,        1.000,
     238.916,        0.419,        1.000,
     239.331,        0.415,        1.000,
     239.743,        0.412,        1.000,
     240.159,        0.416,        1.000,
     240.568,        0.409,        1.000,
     240.971,        0.402,        1.000,
     241.377,        0.406,        1.000,
     241.790,        0.413,        1.000,
     242.211,        0.421,        1.000,
     242.634,        0.423,        1.000,
     243.058,        0.424,        1.000,
     243.484,        0.425,        1.000,
     243.918,        0.434,        1.000,
     244.343,        0.425,        1.000,
     244.765,        0.423,        1.000,
     245.190,        0.424,        1.000,
     245.618,        0.428,        1.000,
     246.056,        0.439,        1.000,
     246.509,        0.453,        1.000,
     246.950,        0.440,        1.000,
     247.392,        0.442,        1.000,
     247.845,        0.453,        1.000,
     248.306,        0.461,        1.000,
     248.767,        0.461,        1.000,
     249.217,        0.450,        1.000,
     249.657,        0.441,        1.000,
     250.106,        0.449,        1.000,
     250.551,        0.445,        1.000,
     251.031,        0.479,        1.000,
     251.288,        0.257,        0.000,
     251.477,        0.189,        0.000,
     252.035,        0.557,        2.000,
     252.394,        0.359,        2.000,
     252.701,        0.307,        0.000,
     253.303,        0.603,        2.000,
     253.794,        0.491,        2.000,
     254.249,        0.455,        2.000,
     254.770,        0.521,        2.000,
     256.080,        1.310,        3.000,
     256.531,        0.451,        2.000,
     257.011,        0.480,        2.000,
     257.474,        0.463,        2.000,
     257.902,        0.429,        2.000,
     258.378,        0.476,        2.000,
     258.819,        0.441,        2.000,
     259.338,        0.520,        2.000,
     260.164,        0.825,        3.000,
     260.612,        0.448,        2.000,
     261.033,        0.421,        2.000,
     261.459,        0.426,        2.000,
     261.944,        0.485,        2.000,
     262.744,        0.801,        0.000,
     263.182,        0.438,        2.000,
     263.654,        0.472,        2.000,
     264.062,        0.407,        2.000,
     264.512,        0.450,        2.000,
     265.319,        0.808,        0.000,
     265.772,        0.453,        2.000,
     266.246,        0.473,        2.000,
     266.652,        0.406,        2.000,
     267.902,        1.250,        0.000,
     268.346,        0.444,        2.000,
     268.764,        0.418,        2.000,
     269.258,        0.494,        2.000,
     269.602,        0.344,        2.000,
     270.008,        0.407,        2.000,
     270.437,        0.428,        2.000,
     270.851,        0.414,        2.000,
     271.328,        0.477,        2.000,
     272.561,        1.233,        0.000,
     273.000,        0.439,        2.000,
     273.418,        0.418,        2.000,
     273.844,        0.426,        2.000,
     274.659,        0.815,        3.000,
     275.097,        0.438,        2.000,
     275.502,        0.405,        2.000,
     275.919,        0.418,        2.000,
     276.335,        0.416,        2.000,
     276.745,        0.410,        2.000,
     277.168,        0.423,        2.000,
     277.576,        0.408,        2.000,
     278.074,        0.498,        2.000,
     278.835,        0.761,        0.000,
     279.253,        0.419,        2.000,
     279.675,        0.422,        2.000,
     280.212,        0.537,        2.000,
     280.441,        0.229,        0.000,
     280.681,        0.240,        0.000,
     280.916,        0.235,        0.000,
     281.359,        0.443,        2.000,
     281.773,        0.414,        2.000,
     282.188,        0.415,        2.000,
     282.585,        0.397,        2.000,
     282.990,        0.405,        2.000,
     283.375,        0.385,        2.000,
     283.795,        0.421,        2.000,
     285.036,        1.241,        0.000,
     285.449,        0.413,        2.000,
     286.650,        1.202,        0.000,
     287.042,        0.391,        2.000,
     287.463,        0.421,        2.000,
     288.248,        0.785,        3.000,
     288.667,        0.420,        2.000,
     289.076,        0.409,        2.000,
     289.536,        0.460,        2.000,
     290.275,        0.739,        0.000,
     290.668,        0.392,        2.000,
     291.081,        0.414,        2.000,
     291.853,        0.772,        3.000,
     292.260,        0.407,        2.000,
     292.679,        0.418,        2.000,
     293.421,        0.742,        0.000,
     293.828,        0.408,        2.000,
     294.234,        0.405,        2.000,
     294.613,        0.379,        2.000,
     294.982,        0.369,        2.000,
     295.395,        0.413,        2.000,
     295.821,        0.426,        2.000,
     296.542,        0.721,        0.000,
     296.969,        0.427,        2.000,
     297.324,        0.355,        2.000,
     298.092,        0.768,        3.000,
     298.466,        0.374,        2.000,
     298.905,        0.439,        2.000,
     299.249,        0.344,        2.000,
     299.630,        0.380,        2.000,
     299.996,        0.367,        2.000,
     300.392,        0.396,        2.000,
     300.766,        0.374,        2.000,
     301.169,        0.403,        2.000,
     301.894,        0.725,        3.000,
     302.276,        0.382,        2.000,
     302.683,        0.406,        2.000,
     303.054,        0.372,        2.000,
     303.456,        0.402,        2.000,
     303.855,        0.399,        2.000,
     304.610,        0.755,        3.000,
     305.023,        0.412,        2.000,
     305.431,        0.408,        2.000,
     306.217,        0.786,        3.000,
     306.621,        0.404,        2.000,
     307.038,        0.417,        2.000,
     307.479,        0.441,        2.000,
     308.244,        0.765,        3.000,
     308.644,        0.399,        2.000,
     309.075,        0.432,        2.000,
     309.895,        0.819,        3.000,
     310.288,        0.393,        2.000,
     310.698,        0.411,        2.000,
     311.494,        0.795,        3.000,
     311.943,        0.449,        2.000,
     312.317,        0.374,        2.000,
     312.745,        0.428,        2.000,
     313.114,        0.369,        2.000,
     313.524,        0.411,        2.000,
     313.914,        0.389,        2.000,
     314.351,        0.437,        2.000,
     315.110,        0.760,        3.000,
     315.486,        0.376,        2.000,
     315.936,        0.450,        2.000,
     316.252,        0.316,        2.000,
     316.703,        0.451,        2.000,
     317.039,        0.337,        2.000,
     317.795,        0.755,        3.000,
     318.176,        0.382,        2.000,
     318.580,        0.403,        2.000,
     319.310,        0.731,        3.000,
     319.697,        0.387,        2.000,
     320.108,        0.410,        2.000,
     320.831,        0.723,        3.000,
     321.230,        0.399,        2.000,
     321.584,        0.354,        2.000,
     321.951,        0.367,        2.000,
     322.323,        0.371,        2.000,
     322.716,        0.393,        2.000,
     323.448,        0.732,        3.000,
     323.831,        0.383,        2.000,
     324.237,        0.406,        2.000,
     324.563,        0.326,        2.000,
     324.958,        0.395,        2.000,
     325.315,        0.357,        2.000,
     325.684,        0.369,        2.000,
     326.062,        0.378,        2.000,
     326.443,        0.381,        2.000,
     326.821,        0.378,        2.000,
     327.160,        0.340,        2.000,
     327.554,        0.394,        2.000,
     327.916,        0.362,        2.000,
     328.279,        0.363,        2.000,
     328.638,        0.359,        2.000,
     329.058,        0.420,        0.000,
     329.767,        0.709,        3.000,
     330.132,        0.365,        2.000,
     330.881,        0.749,        3.000,
     331.260,        0.379,        2.000,
     331.602,        0.343,        2.000,
     331.959,        0.357,        2.000,
     332.325,        0.366,        2.000,
     333.049,        0.724,        3.000,
     333.431,        0.383,        2.000,
     333.816,        0.385,        2.000,
     334.506,        0.690,        0.000,
     334.898,        0.392,        2.000,
     335.609,        0.711,        3.000,
     335.971,        0.362,        2.000,
     336.717,        0.746,        3.000,
     337.046,        0.329,        2.000,
     337.768,        0.722,        3.000,
     338.141,        0.373,        2.000,
     338.500,        0.359,        2.000,
     338.890,        0.390,        2.000,
     339.272,        0.381,        2.000,
     339.590,        0.319,        2.000,
     339.971,        0.380,        2.000,
     340.339,        0.368,        2.000,
     340.672,        0.333,        2.000,
     341.048,        0.376,        2.000,
     341.398,        0.350,        2.000,
     341.751,        0.353,        2.000,
     342.115,        0.364,        2.000,
     342.454,        0.339,        2.000,
     342.821,        0.366,        1.000,
     343.187,        0.366,        2.000,
     343.526,        0.339,        1.000,
     343.877,        0.351,        1.000,
     344.261,        0.384,        1.000,
     344.605,        0.344,        1.000,
     344.947,        0.343,        1.000,
     345.296,        0.349,        1.000,
     345.682,        0.385,        1.000,
     346.402,        0.721,        3.000,
     346.736,        0.334,        2.000,
