NaN,NaN,NaN,NaN
-0.043821,-0.063548,NaN,NaN
0.37822,0.30409,NaN,-0.020695
0.74219,0.30409,NaN,NaN
1.7631,1.6958,NaN,1.0248
2.082,1.6958,NaN,NaN
3.1395,3.0742,NaN,2.3502
4.6716,4.6254,NaN,3.5631
6.0964,6.0304,NaN,4.9192
6.3642,6.0304,NaN,NaN
7.1998,7.1107,NaN,6.4846
7.45,7.1107,NaN,NaN
8.684,8.6093,NaN,7.5656
8.835,8.6093,NaN,NaN
10.184,10.126,NaN,9.1109
10.531,10.126,NaN,NaN
11.789,11.59,NaN,10.735
11.963,11.59,NaN,NaN
13.005,12.939,NaN,12.205
13.16,12.939,NaN,NaN
14.453,14.371,NaN,13.563
14.723,14.371,NaN,NaN
15.957,15.877,NaN,15.065
16.107,15.877,NaN,NaN
17.378,17.318,NaN,16.481
17.653,17.318,NaN,NaN
18.863,18.785,NaN,17.832
19.167,18.785,NaN,NaN
20.305,20.237,NaN,19.346
20.595,20.237,NaN,NaN
21.741,21.666,NaN,20.82
22.015,21.666,NaN,NaN
23.103,23.034,NaN,22.24
23.388,23.034,NaN,NaN
24.462,24.404,NaN,23.626
24.81,24.404,NaN,NaN
25.859,25.79,NaN,24.988
26.184,25.79,NaN,NaN
27.227,27.165,NaN,26.368
27.527,27.165,NaN,NaN
28.565,28.505,NaN,27.665
29.872,29.797,NaN,29.018
31.026,30.952,NaN,30.111
32.201,32.154,NaN,31.338
34.629,34.491,NaN,NaN
34.866,34.491,NaN,NaN
35.593,35.539,NaN,34.997
36.613,36.568,NaN,35.84
37.712,37.651,NaN,36.83
38.82,38.642,NaN,37.922
38.969,38.924,NaN,NaN
39.886,39.683,NaN,NaN
40.053,39.683,NaN,NaN
40.877,40.807,NaN,40.268
41.159,40.807,NaN,NaN
42.089,42.015,NaN,41.527
42.364,42.015,NaN,NaN
43.298,43.211,NaN,42.885
43.648,43.211,NaN,43.593
44.54,44.432,NaN,NaN
44.92,44.828,NaN,NaN
46.393,46.345,NaN,45.026
47.268,47.223,NaN,46.604
48.511,48.442,NaN,47.456
48.787,48.442,NaN,NaN
49.762,49.671,NaN,48.975
50.972,50.915,NaN,50.434
51.557,51.514,NaN,51.194
51.982,51.514,NaN,NaN
52.183,52.091,NaN,NaN
52.928,52.689,NaN,NaN
53.384,53.328,NaN,53.092
54.473,54.398,NaN,53.685
55.643,55.444,NaN,NaN
55.807,55.444,NaN,NaN
56.456,56.402,NaN,56.144
57.31,57.246,NaN,56.844
58.445,58.401,NaN,57.621
